G75*
%MOIN*%
%OFA0B0*%
%FSLAX25Y25*%
%IPPOS*%
%LPD*%
%AMOC8*
5,1,8,0,0,1.08239X$1,22.5*
%
%ADD10C,0.08858*%
%ADD11OC8,0.06600*%
%ADD12C,0.10000*%
%ADD13C,0.12661*%
%ADD14C,0.01600*%
%ADD15C,0.03962*%
D10*
X0033099Y0104162D03*
X0081131Y0104162D03*
X0089005Y0127784D03*
X0081131Y0151406D03*
X0127587Y0133690D03*
X0127587Y0115973D03*
X0175619Y0115973D03*
X0175619Y0133690D03*
X0183493Y0157312D03*
X0175619Y0180934D03*
X0175619Y0198650D03*
X0183493Y0222272D03*
X0175619Y0245894D03*
X0210265Y0246091D03*
X0218139Y0235658D03*
X0210265Y0222469D03*
X0218139Y0214398D03*
X0210265Y0198847D03*
X0239989Y0171682D03*
X0263611Y0163808D03*
X0257509Y0198847D03*
X0265383Y0214398D03*
X0257509Y0222469D03*
X0265383Y0235658D03*
X0257509Y0246091D03*
X0216367Y0163808D03*
X0216367Y0115776D03*
X0183493Y0092351D03*
X0175619Y0068729D03*
X0127587Y0068729D03*
X0033099Y0151406D03*
X0088217Y0198847D03*
X0096091Y0214398D03*
X0088217Y0222469D03*
X0096091Y0235658D03*
X0088217Y0246091D03*
X0127587Y0245894D03*
X0127587Y0198650D03*
X0127587Y0180934D03*
X0263611Y0115776D03*
D11*
X0187902Y0021485D03*
X0177902Y0021485D03*
X0109162Y0021485D03*
X0099162Y0021485D03*
D12*
X0091367Y0045107D03*
X0116957Y0045107D03*
X0170107Y0045107D03*
X0195698Y0045107D03*
D13*
X0045532Y0200225D02*
X0032871Y0200225D01*
X0020304Y0206099D02*
X0020304Y0218761D01*
X0032871Y0224241D02*
X0045532Y0224241D01*
D14*
X0010537Y0248969D02*
X0010537Y0010537D01*
X0276528Y0010537D01*
X0276528Y0248969D01*
X0262843Y0248969D01*
X0263538Y0247291D01*
X0263538Y0244892D01*
X0262620Y0242676D01*
X0260924Y0240980D01*
X0258708Y0240062D01*
X0256309Y0240062D01*
X0254093Y0240980D01*
X0253171Y0241903D01*
X0244357Y0233089D01*
X0244357Y0213921D01*
X0243992Y0213039D01*
X0243317Y0212364D01*
X0219695Y0188742D01*
X0218813Y0188376D01*
X0202110Y0188376D01*
X0201228Y0188742D01*
X0200553Y0189417D01*
X0185845Y0204124D01*
X0178158Y0204124D01*
X0179034Y0203762D01*
X0180730Y0202066D01*
X0181648Y0199850D01*
X0181648Y0197451D01*
X0180730Y0195235D01*
X0179034Y0193539D01*
X0176818Y0192621D01*
X0174420Y0192621D01*
X0172204Y0193539D01*
X0170508Y0195235D01*
X0169590Y0197451D01*
X0169590Y0199850D01*
X0170508Y0202066D01*
X0172204Y0203762D01*
X0173080Y0204124D01*
X0140589Y0204124D01*
X0133756Y0197291D01*
X0133405Y0196940D01*
X0132699Y0195235D01*
X0131003Y0193539D01*
X0128787Y0192621D01*
X0126388Y0192621D01*
X0124172Y0193539D01*
X0122476Y0195235D01*
X0121558Y0197451D01*
X0121558Y0199850D01*
X0122476Y0202066D01*
X0124172Y0203762D01*
X0126388Y0204680D01*
X0128787Y0204680D01*
X0131003Y0203762D01*
X0132221Y0202544D01*
X0138236Y0208559D01*
X0139118Y0208924D01*
X0187317Y0208924D01*
X0188199Y0208559D01*
X0188874Y0207884D01*
X0188874Y0207884D01*
X0203582Y0193176D01*
X0208200Y0193176D01*
X0206849Y0193736D01*
X0205153Y0195432D01*
X0204235Y0197648D01*
X0204235Y0200047D01*
X0205153Y0202262D01*
X0206849Y0203958D01*
X0209065Y0204876D01*
X0211464Y0204876D01*
X0213680Y0203958D01*
X0215376Y0202262D01*
X0216294Y0200047D01*
X0216294Y0197648D01*
X0215376Y0195432D01*
X0213680Y0193736D01*
X0212329Y0193176D01*
X0217341Y0193176D01*
X0239557Y0215393D01*
X0239557Y0234561D01*
X0239923Y0235443D01*
X0251480Y0247000D01*
X0251480Y0247291D01*
X0252175Y0248969D01*
X0215599Y0248969D01*
X0216294Y0247291D01*
X0216294Y0244892D01*
X0215376Y0242676D01*
X0213680Y0240980D01*
X0211464Y0240062D01*
X0209065Y0240062D01*
X0206849Y0240980D01*
X0205153Y0242676D01*
X0204235Y0244892D01*
X0204235Y0247291D01*
X0204930Y0248969D01*
X0181044Y0248969D01*
X0181392Y0248286D01*
X0181695Y0247353D01*
X0181819Y0246571D01*
X0176295Y0246571D01*
X0176295Y0245218D01*
X0176295Y0239695D01*
X0177078Y0239819D01*
X0178010Y0240122D01*
X0178884Y0240567D01*
X0179677Y0241143D01*
X0180370Y0241836D01*
X0180947Y0242630D01*
X0181392Y0243503D01*
X0181695Y0244436D01*
X0181819Y0245218D01*
X0176295Y0245218D01*
X0174942Y0245218D01*
X0169419Y0245218D01*
X0169543Y0244436D01*
X0169846Y0243503D01*
X0170291Y0242630D01*
X0170868Y0241836D01*
X0171561Y0241143D01*
X0172354Y0240567D01*
X0173228Y0240122D01*
X0174160Y0239819D01*
X0174942Y0239695D01*
X0174942Y0245218D01*
X0174942Y0246571D01*
X0169419Y0246571D01*
X0169543Y0247353D01*
X0169846Y0248286D01*
X0170194Y0248969D01*
X0132840Y0248969D01*
X0133617Y0247094D01*
X0133617Y0244695D01*
X0132699Y0242479D01*
X0131003Y0240783D01*
X0128787Y0239865D01*
X0126388Y0239865D01*
X0124172Y0240783D01*
X0122476Y0242479D01*
X0121558Y0244695D01*
X0121558Y0247094D01*
X0122335Y0248969D01*
X0093551Y0248969D01*
X0093749Y0248491D01*
X0100506Y0248491D01*
X0101388Y0248126D01*
X0124841Y0224672D01*
X0177961Y0224672D01*
X0178382Y0225688D01*
X0180078Y0227384D01*
X0182294Y0228302D01*
X0184692Y0228302D01*
X0186908Y0227384D01*
X0188604Y0225688D01*
X0189522Y0223472D01*
X0189522Y0221073D01*
X0188604Y0218857D01*
X0186908Y0217161D01*
X0184692Y0216243D01*
X0182294Y0216243D01*
X0180078Y0217161D01*
X0178382Y0218857D01*
X0177961Y0219872D01*
X0123370Y0219872D01*
X0122488Y0220238D01*
X0121813Y0220913D01*
X0099034Y0243691D01*
X0093749Y0243691D01*
X0093329Y0242676D01*
X0091633Y0240980D01*
X0089417Y0240062D01*
X0087018Y0240062D01*
X0084802Y0240980D01*
X0083106Y0242676D01*
X0082188Y0244892D01*
X0082188Y0247291D01*
X0082883Y0248969D01*
X0010537Y0248969D01*
X0010537Y0248711D02*
X0082776Y0248711D01*
X0082188Y0247112D02*
X0010537Y0247112D01*
X0010537Y0245514D02*
X0082188Y0245514D01*
X0082593Y0243915D02*
X0010537Y0243915D01*
X0010537Y0242317D02*
X0083465Y0242317D01*
X0085434Y0240718D02*
X0010537Y0240718D01*
X0010537Y0239120D02*
X0091026Y0239120D01*
X0090980Y0239073D02*
X0090062Y0236858D01*
X0090062Y0234459D01*
X0090980Y0232243D01*
X0092676Y0230547D01*
X0094892Y0229629D01*
X0097291Y0229629D01*
X0099507Y0230547D01*
X0101203Y0232243D01*
X0102120Y0234459D01*
X0102120Y0236858D01*
X0101203Y0239073D01*
X0099507Y0240770D01*
X0097291Y0241687D01*
X0094892Y0241687D01*
X0092676Y0240770D01*
X0090980Y0239073D01*
X0091000Y0240718D02*
X0092625Y0240718D01*
X0092969Y0242317D02*
X0100409Y0242317D01*
X0099558Y0240718D02*
X0102007Y0240718D01*
X0101156Y0239120D02*
X0103606Y0239120D01*
X0105204Y0237521D02*
X0101846Y0237521D01*
X0102120Y0235923D02*
X0106803Y0235923D01*
X0108401Y0234324D02*
X0102065Y0234324D01*
X0101402Y0232726D02*
X0110000Y0232726D01*
X0111598Y0231127D02*
X0100087Y0231127D01*
X0092096Y0231127D02*
X0049867Y0231127D01*
X0050059Y0231016D02*
X0049136Y0231549D01*
X0048151Y0231957D01*
X0047122Y0232233D01*
X0046065Y0232372D01*
X0040002Y0232372D01*
X0040002Y0225041D01*
X0053628Y0225041D01*
X0053524Y0225831D01*
X0053248Y0226860D01*
X0052840Y0227845D01*
X0052307Y0228768D01*
X0051658Y0229613D01*
X0050905Y0230367D01*
X0050059Y0231016D01*
X0051723Y0229529D02*
X0113197Y0229529D01*
X0114795Y0227930D02*
X0090789Y0227930D01*
X0091633Y0227581D02*
X0089417Y0228498D01*
X0087018Y0228498D01*
X0084802Y0227581D01*
X0083106Y0225885D01*
X0082188Y0223669D01*
X0082188Y0221270D01*
X0083106Y0219054D01*
X0084802Y0217358D01*
X0087018Y0216440D01*
X0089417Y0216440D01*
X0090617Y0216937D01*
X0090062Y0215598D01*
X0090062Y0213199D01*
X0090980Y0210983D01*
X0092676Y0209287D01*
X0094892Y0208369D01*
X0097291Y0208369D01*
X0099507Y0209287D01*
X0101203Y0210983D01*
X0102120Y0213199D01*
X0102120Y0215598D01*
X0101203Y0217814D01*
X0099507Y0219510D01*
X0097291Y0220428D01*
X0094892Y0220428D01*
X0093691Y0219930D01*
X0094246Y0221270D01*
X0094246Y0223669D01*
X0093329Y0225885D01*
X0091633Y0227581D01*
X0092882Y0226332D02*
X0116394Y0226332D01*
X0117993Y0224733D02*
X0093806Y0224733D01*
X0094246Y0223135D02*
X0119591Y0223135D01*
X0121190Y0221536D02*
X0094246Y0221536D01*
X0093709Y0219938D02*
X0093695Y0219938D01*
X0090536Y0216741D02*
X0090142Y0216741D01*
X0090062Y0215142D02*
X0028435Y0215142D01*
X0028435Y0216741D02*
X0029732Y0216741D01*
X0029267Y0216933D02*
X0030252Y0216525D01*
X0031281Y0216249D01*
X0032338Y0216110D01*
X0038402Y0216110D01*
X0038402Y0223441D01*
X0040002Y0223441D01*
X0040002Y0225041D01*
X0038402Y0225041D01*
X0038402Y0232372D01*
X0032338Y0232372D01*
X0031281Y0232233D01*
X0030252Y0231957D01*
X0029267Y0231549D01*
X0028344Y0231016D01*
X0027498Y0230367D01*
X0026745Y0229613D01*
X0026096Y0228768D01*
X0025563Y0227845D01*
X0025155Y0226860D01*
X0024879Y0225831D01*
X0024840Y0225529D01*
X0024831Y0225536D01*
X0023908Y0226068D01*
X0022923Y0226476D01*
X0021894Y0226752D01*
X0021104Y0226856D01*
X0021104Y0213230D01*
X0019504Y0213230D01*
X0019504Y0226856D01*
X0018714Y0226752D01*
X0017685Y0226476D01*
X0016700Y0226068D01*
X0015777Y0225536D01*
X0014931Y0224887D01*
X0014178Y0224133D01*
X0013529Y0223287D01*
X0012996Y0222364D01*
X0012588Y0221380D01*
X0012312Y0220350D01*
X0012173Y0219294D01*
X0012173Y0213230D01*
X0019504Y0213230D01*
X0019504Y0211630D01*
X0012173Y0211630D01*
X0012173Y0205566D01*
X0012312Y0204510D01*
X0012588Y0203480D01*
X0012996Y0202495D01*
X0013529Y0201572D01*
X0014178Y0200727D01*
X0014931Y0199973D01*
X0015777Y0199324D01*
X0016700Y0198791D01*
X0017685Y0198383D01*
X0018714Y0198108D01*
X0019504Y0198004D01*
X0019504Y0211630D01*
X0021104Y0211630D01*
X0021104Y0213230D01*
X0028435Y0213230D01*
X0028435Y0217414D01*
X0029267Y0216933D01*
X0028435Y0213543D02*
X0090062Y0213543D01*
X0090582Y0211945D02*
X0021104Y0211945D01*
X0021104Y0211630D02*
X0028435Y0211630D01*
X0028435Y0206972D01*
X0031293Y0208156D01*
X0047110Y0208156D01*
X0050025Y0206949D01*
X0052256Y0204718D01*
X0053463Y0201803D01*
X0053463Y0198648D01*
X0052256Y0195733D01*
X0050025Y0193502D01*
X0047110Y0192294D01*
X0031293Y0192294D01*
X0028378Y0193502D01*
X0026148Y0195733D01*
X0024940Y0198648D01*
X0024940Y0199408D01*
X0024831Y0199324D01*
X0023908Y0198791D01*
X0022923Y0198383D01*
X0021894Y0198108D01*
X0021104Y0198004D01*
X0021104Y0211630D01*
X0021104Y0210346D02*
X0019504Y0210346D01*
X0019504Y0208748D02*
X0021104Y0208748D01*
X0021104Y0207149D02*
X0019504Y0207149D01*
X0019504Y0205551D02*
X0021104Y0205551D01*
X0021104Y0203952D02*
X0019504Y0203952D01*
X0019504Y0202354D02*
X0021104Y0202354D01*
X0021104Y0200755D02*
X0019504Y0200755D01*
X0019504Y0199157D02*
X0021104Y0199157D01*
X0024541Y0199157D02*
X0024940Y0199157D01*
X0025391Y0197558D02*
X0010537Y0197558D01*
X0010537Y0195960D02*
X0026053Y0195960D01*
X0027519Y0194361D02*
X0010537Y0194361D01*
X0010537Y0192763D02*
X0030163Y0192763D01*
X0028864Y0207149D02*
X0028435Y0207149D01*
X0028435Y0208748D02*
X0093978Y0208748D01*
X0091617Y0210346D02*
X0028435Y0210346D01*
X0021104Y0213543D02*
X0019504Y0213543D01*
X0019504Y0211945D02*
X0010537Y0211945D01*
X0010537Y0213543D02*
X0012173Y0213543D01*
X0012173Y0215142D02*
X0010537Y0215142D01*
X0010537Y0216741D02*
X0012173Y0216741D01*
X0012173Y0218339D02*
X0010537Y0218339D01*
X0010537Y0219938D02*
X0012258Y0219938D01*
X0012653Y0221536D02*
X0010537Y0221536D01*
X0010537Y0223135D02*
X0013441Y0223135D01*
X0014778Y0224733D02*
X0010537Y0224733D01*
X0010537Y0226332D02*
X0017335Y0226332D01*
X0019504Y0226332D02*
X0021104Y0226332D01*
X0021104Y0224733D02*
X0019504Y0224733D01*
X0019504Y0223135D02*
X0021104Y0223135D01*
X0021104Y0221536D02*
X0019504Y0221536D01*
X0019504Y0219938D02*
X0021104Y0219938D01*
X0021104Y0218339D02*
X0019504Y0218339D01*
X0019504Y0216741D02*
X0021104Y0216741D01*
X0021104Y0215142D02*
X0019504Y0215142D01*
X0012173Y0210346D02*
X0010537Y0210346D01*
X0010537Y0208748D02*
X0012173Y0208748D01*
X0012173Y0207149D02*
X0010537Y0207149D01*
X0010537Y0205551D02*
X0012175Y0205551D01*
X0012462Y0203952D02*
X0010537Y0203952D01*
X0010537Y0202354D02*
X0013078Y0202354D01*
X0014156Y0200755D02*
X0010537Y0200755D01*
X0010537Y0199157D02*
X0016067Y0199157D01*
X0010537Y0191164D02*
X0092506Y0191164D01*
X0094105Y0189566D02*
X0010537Y0189566D01*
X0010537Y0187967D02*
X0095703Y0187967D01*
X0097302Y0186369D02*
X0010537Y0186369D01*
X0010537Y0184770D02*
X0098900Y0184770D01*
X0100499Y0183172D02*
X0010537Y0183172D01*
X0010537Y0181573D02*
X0102097Y0181573D01*
X0103696Y0179975D02*
X0010537Y0179975D01*
X0010537Y0178376D02*
X0105294Y0178376D01*
X0106893Y0176778D02*
X0010537Y0176778D01*
X0010537Y0175179D02*
X0108491Y0175179D01*
X0110090Y0173581D02*
X0010537Y0173581D01*
X0010537Y0171982D02*
X0111688Y0171982D01*
X0113287Y0170384D02*
X0010537Y0170384D01*
X0010537Y0168785D02*
X0114885Y0168785D01*
X0116484Y0167187D02*
X0010537Y0167187D01*
X0010537Y0165588D02*
X0118082Y0165588D01*
X0117876Y0165795D02*
X0118551Y0165120D01*
X0119433Y0164754D01*
X0154349Y0164754D01*
X0160817Y0158286D01*
X0160817Y0154866D01*
X0161183Y0153984D01*
X0169057Y0146110D01*
X0169234Y0145932D01*
X0166677Y0145932D01*
X0165795Y0145567D01*
X0156318Y0136090D01*
X0133119Y0136090D01*
X0132699Y0137105D01*
X0131003Y0138801D01*
X0128787Y0139719D01*
X0126388Y0139719D01*
X0124172Y0138801D01*
X0122476Y0137105D01*
X0121558Y0134889D01*
X0121558Y0132490D01*
X0122476Y0130275D01*
X0124172Y0128579D01*
X0126388Y0127661D01*
X0128787Y0127661D01*
X0131003Y0128579D01*
X0132699Y0130275D01*
X0133119Y0131290D01*
X0157789Y0131290D01*
X0158671Y0131655D01*
X0159346Y0132330D01*
X0168148Y0141132D01*
X0238498Y0141132D01*
X0239380Y0141498D01*
X0240055Y0142173D01*
X0255803Y0157921D01*
X0256168Y0158803D01*
X0256168Y0181908D01*
X0259543Y0185283D01*
X0259909Y0186165D01*
X0259909Y0193315D01*
X0260924Y0193736D01*
X0262620Y0195432D01*
X0263040Y0196447D01*
X0266254Y0196447D01*
X0267136Y0196813D01*
X0274813Y0204490D01*
X0275488Y0205165D01*
X0275854Y0206047D01*
X0275854Y0228065D01*
X0275488Y0228947D01*
X0270991Y0233444D01*
X0271412Y0234459D01*
X0271412Y0236858D01*
X0270494Y0239073D01*
X0268798Y0240770D01*
X0266582Y0241687D01*
X0264183Y0241687D01*
X0261967Y0240770D01*
X0260271Y0239073D01*
X0259354Y0236858D01*
X0259354Y0234459D01*
X0260271Y0232243D01*
X0261967Y0230547D01*
X0264183Y0229629D01*
X0266582Y0229629D01*
X0267597Y0230050D01*
X0271054Y0226593D01*
X0271054Y0216463D01*
X0270494Y0217814D01*
X0268798Y0219510D01*
X0266582Y0220428D01*
X0264183Y0220428D01*
X0262983Y0219930D01*
X0263538Y0221270D01*
X0263538Y0223669D01*
X0262620Y0225885D01*
X0260924Y0227581D01*
X0258708Y0228498D01*
X0256309Y0228498D01*
X0254093Y0227581D01*
X0252397Y0225885D01*
X0251480Y0223669D01*
X0251480Y0221270D01*
X0252397Y0219054D01*
X0254093Y0217358D01*
X0256309Y0216440D01*
X0258708Y0216440D01*
X0259908Y0216937D01*
X0259354Y0215598D01*
X0259354Y0213199D01*
X0260271Y0210983D01*
X0261967Y0209287D01*
X0264183Y0208369D01*
X0266582Y0208369D01*
X0268798Y0209287D01*
X0270494Y0210983D01*
X0271054Y0212334D01*
X0271054Y0207519D01*
X0264782Y0201247D01*
X0263040Y0201247D01*
X0262620Y0202262D01*
X0260924Y0203958D01*
X0258708Y0204876D01*
X0256309Y0204876D01*
X0254093Y0203958D01*
X0252397Y0202262D01*
X0251480Y0200047D01*
X0251480Y0197648D01*
X0252397Y0195432D01*
X0254093Y0193736D01*
X0255109Y0193315D01*
X0255109Y0187637D01*
X0252409Y0184937D01*
X0251734Y0184262D01*
X0251369Y0183380D01*
X0251369Y0160274D01*
X0237026Y0145932D01*
X0176885Y0145932D01*
X0182253Y0151300D01*
X0182294Y0151283D01*
X0184692Y0151283D01*
X0186908Y0152201D01*
X0188604Y0153897D01*
X0189522Y0156113D01*
X0189522Y0158511D01*
X0188604Y0160727D01*
X0186908Y0162423D01*
X0184692Y0163341D01*
X0182294Y0163341D01*
X0180078Y0162423D01*
X0178382Y0160727D01*
X0177464Y0158511D01*
X0177464Y0156113D01*
X0178288Y0154123D01*
X0174034Y0149869D01*
X0172085Y0149869D01*
X0170061Y0151894D01*
X0170379Y0151762D01*
X0171804Y0151762D01*
X0173120Y0152307D01*
X0174127Y0153315D01*
X0174672Y0154631D01*
X0174672Y0156056D01*
X0174127Y0157372D01*
X0173491Y0158008D01*
X0173491Y0163695D01*
X0173126Y0164577D01*
X0172451Y0165252D01*
X0166798Y0170904D01*
X0166798Y0171804D01*
X0166253Y0173120D01*
X0165246Y0174127D01*
X0164112Y0174597D01*
X0166160Y0174597D01*
X0171025Y0169732D01*
X0171700Y0169057D01*
X0172582Y0168691D01*
X0183380Y0168691D01*
X0184262Y0169057D01*
X0188199Y0172994D01*
X0188874Y0173669D01*
X0189239Y0174551D01*
X0189239Y0176301D01*
X0189875Y0176937D01*
X0190420Y0178253D01*
X0190420Y0179678D01*
X0189875Y0180994D01*
X0188868Y0182001D01*
X0187552Y0182546D01*
X0186127Y0182546D01*
X0184811Y0182001D01*
X0183803Y0180994D01*
X0183258Y0179678D01*
X0183258Y0178253D01*
X0183803Y0176937D01*
X0184439Y0176301D01*
X0184439Y0176022D01*
X0181908Y0173491D01*
X0174054Y0173491D01*
X0168514Y0179031D01*
X0167632Y0179397D01*
X0152897Y0179397D01*
X0152015Y0179031D01*
X0151593Y0178609D01*
X0150694Y0178609D01*
X0149378Y0178064D01*
X0148370Y0177057D01*
X0147825Y0175741D01*
X0147825Y0174316D01*
X0148370Y0173000D01*
X0149378Y0171992D01*
X0150694Y0171447D01*
X0152119Y0171447D01*
X0153435Y0171992D01*
X0154442Y0173000D01*
X0154987Y0174316D01*
X0154987Y0174597D01*
X0162323Y0174597D01*
X0161189Y0174127D01*
X0160181Y0173120D01*
X0159636Y0171804D01*
X0159636Y0170379D01*
X0160181Y0169063D01*
X0161189Y0168055D01*
X0162505Y0167510D01*
X0163404Y0167510D01*
X0168691Y0162223D01*
X0168691Y0158008D01*
X0168055Y0157372D01*
X0167510Y0156056D01*
X0167510Y0154631D01*
X0167642Y0154313D01*
X0165617Y0156337D01*
X0165617Y0159758D01*
X0165252Y0160640D01*
X0164577Y0161315D01*
X0156703Y0169189D01*
X0155821Y0169554D01*
X0120904Y0169554D01*
X0093826Y0196633D01*
X0094246Y0197648D01*
X0094246Y0200047D01*
X0093329Y0202262D01*
X0091633Y0203958D01*
X0089417Y0204876D01*
X0087018Y0204876D01*
X0084802Y0203958D01*
X0083106Y0202262D01*
X0082188Y0200047D01*
X0082188Y0197648D01*
X0083106Y0195432D01*
X0084802Y0193736D01*
X0087018Y0192818D01*
X0089417Y0192818D01*
X0090432Y0193239D01*
X0117876Y0165795D01*
X0119910Y0167154D02*
X0155343Y0167154D01*
X0163217Y0159280D01*
X0163217Y0155343D01*
X0171091Y0147469D01*
X0175028Y0147469D01*
X0183493Y0155934D01*
X0183493Y0157312D01*
X0178174Y0154399D02*
X0174576Y0154399D01*
X0174672Y0155997D02*
X0177512Y0155997D01*
X0177464Y0157596D02*
X0173903Y0157596D01*
X0173491Y0159194D02*
X0177747Y0159194D01*
X0178447Y0160793D02*
X0173491Y0160793D01*
X0173491Y0162391D02*
X0180046Y0162391D01*
X0173369Y0163990D02*
X0210338Y0163990D01*
X0210338Y0165007D02*
X0210338Y0162609D01*
X0211256Y0160393D01*
X0212952Y0158697D01*
X0215168Y0157779D01*
X0217566Y0157779D01*
X0219782Y0158697D01*
X0221478Y0160393D01*
X0222396Y0162609D01*
X0222396Y0165007D01*
X0221478Y0167223D01*
X0219782Y0168919D01*
X0217566Y0169837D01*
X0215168Y0169837D01*
X0212952Y0168919D01*
X0211256Y0167223D01*
X0210338Y0165007D01*
X0210578Y0165588D02*
X0172115Y0165588D01*
X0170516Y0167187D02*
X0211241Y0167187D01*
X0212818Y0168785D02*
X0183606Y0168785D01*
X0182902Y0171091D02*
X0186839Y0175028D01*
X0186839Y0178965D01*
X0184383Y0181573D02*
X0176295Y0181573D01*
X0176295Y0181610D02*
X0181819Y0181610D01*
X0181695Y0182393D01*
X0181392Y0183325D01*
X0180947Y0184199D01*
X0180370Y0184992D01*
X0179677Y0185685D01*
X0178884Y0186261D01*
X0178596Y0186408D01*
X0191751Y0186408D01*
X0196616Y0181543D01*
X0196616Y0181543D01*
X0197291Y0180868D01*
X0198173Y0180502D01*
X0199923Y0180502D01*
X0200559Y0179866D01*
X0201875Y0179321D01*
X0203300Y0179321D01*
X0204616Y0179866D01*
X0205623Y0180874D01*
X0206168Y0182190D01*
X0206168Y0183615D01*
X0205623Y0184931D01*
X0204616Y0185938D01*
X0203300Y0186483D01*
X0201875Y0186483D01*
X0200559Y0185938D01*
X0199923Y0185302D01*
X0199644Y0185302D01*
X0194779Y0190167D01*
X0194779Y0190167D01*
X0194104Y0190842D01*
X0193222Y0191208D01*
X0134984Y0191208D01*
X0134102Y0190842D01*
X0133427Y0190167D01*
X0129802Y0186542D01*
X0128787Y0186963D01*
X0126388Y0186963D01*
X0124172Y0186045D01*
X0122476Y0184349D01*
X0121558Y0182133D01*
X0121558Y0179735D01*
X0122476Y0177519D01*
X0124172Y0175823D01*
X0126388Y0174905D01*
X0128787Y0174905D01*
X0131003Y0175823D01*
X0132699Y0177519D01*
X0133617Y0179735D01*
X0133617Y0182133D01*
X0133196Y0183148D01*
X0136456Y0186408D01*
X0172641Y0186408D01*
X0172354Y0186261D01*
X0171561Y0185685D01*
X0170868Y0184992D01*
X0170291Y0184199D01*
X0169846Y0183325D01*
X0169543Y0182393D01*
X0169419Y0181610D01*
X0174942Y0181610D01*
X0174942Y0180257D01*
X0169419Y0180257D01*
X0169543Y0179475D01*
X0169846Y0178543D01*
X0170291Y0177669D01*
X0170868Y0176876D01*
X0171561Y0176183D01*
X0172354Y0175606D01*
X0173228Y0175161D01*
X0174160Y0174858D01*
X0174942Y0174734D01*
X0174942Y0180257D01*
X0176295Y0180257D01*
X0176295Y0174734D01*
X0177078Y0174858D01*
X0178010Y0175161D01*
X0178884Y0175606D01*
X0179677Y0176183D01*
X0180370Y0176876D01*
X0180947Y0177669D01*
X0181392Y0178543D01*
X0181695Y0179475D01*
X0181819Y0180257D01*
X0176295Y0180257D01*
X0176295Y0181610D01*
X0174942Y0181573D02*
X0133617Y0181573D01*
X0133617Y0179975D02*
X0169464Y0179975D01*
X0169169Y0178376D02*
X0169931Y0178376D01*
X0170768Y0176778D02*
X0170966Y0176778D01*
X0172366Y0175179D02*
X0173192Y0175179D01*
X0174942Y0175179D02*
X0176295Y0175179D01*
X0176295Y0176778D02*
X0174942Y0176778D01*
X0174942Y0178376D02*
X0176295Y0178376D01*
X0176295Y0179975D02*
X0174942Y0179975D01*
X0169796Y0183172D02*
X0133219Y0183172D01*
X0134818Y0184770D02*
X0170707Y0184770D01*
X0172565Y0186369D02*
X0136416Y0186369D01*
X0135461Y0188808D02*
X0192745Y0188808D01*
X0198650Y0182902D01*
X0202587Y0182902D01*
X0205913Y0181573D02*
X0251369Y0181573D01*
X0251369Y0179975D02*
X0204724Y0179975D01*
X0206168Y0183172D02*
X0251369Y0183172D01*
X0252242Y0184770D02*
X0205690Y0184770D01*
X0203577Y0186369D02*
X0253841Y0186369D01*
X0255109Y0187967D02*
X0196980Y0187967D01*
X0198578Y0186369D02*
X0201598Y0186369D01*
X0200404Y0189566D02*
X0195381Y0189566D01*
X0193327Y0191164D02*
X0198805Y0191164D01*
X0197207Y0192763D02*
X0177160Y0192763D01*
X0174078Y0192763D02*
X0129128Y0192763D01*
X0126046Y0192763D02*
X0097696Y0192763D01*
X0099294Y0191164D02*
X0134879Y0191164D01*
X0135461Y0188808D02*
X0127587Y0180934D01*
X0131958Y0176778D02*
X0148255Y0176778D01*
X0147825Y0175179D02*
X0129449Y0175179D01*
X0133054Y0178376D02*
X0150131Y0178376D01*
X0153375Y0176997D02*
X0151406Y0175028D01*
X0153375Y0176997D02*
X0167154Y0176997D01*
X0173060Y0171091D01*
X0182902Y0171091D01*
X0181998Y0173581D02*
X0173965Y0173581D01*
X0170373Y0170384D02*
X0167319Y0170384D01*
X0166724Y0171982D02*
X0168775Y0171982D01*
X0167176Y0173581D02*
X0165792Y0173581D01*
X0163217Y0171091D02*
X0171091Y0163217D01*
X0171091Y0155343D01*
X0173613Y0152800D02*
X0176965Y0152800D01*
X0175366Y0151202D02*
X0170753Y0151202D01*
X0167606Y0154399D02*
X0167556Y0154399D01*
X0167510Y0155997D02*
X0165958Y0155997D01*
X0165617Y0157596D02*
X0168279Y0157596D01*
X0168691Y0159194D02*
X0165617Y0159194D01*
X0165099Y0160793D02*
X0168691Y0160793D01*
X0168523Y0162391D02*
X0163501Y0162391D01*
X0161902Y0163990D02*
X0166925Y0163990D01*
X0165326Y0165588D02*
X0160304Y0165588D01*
X0158705Y0167187D02*
X0163728Y0167187D01*
X0168918Y0168785D02*
X0172356Y0168785D01*
X0178046Y0175179D02*
X0183596Y0175179D01*
X0183963Y0176778D02*
X0180272Y0176778D01*
X0181307Y0178376D02*
X0183258Y0178376D01*
X0183381Y0179975D02*
X0181774Y0179975D01*
X0181441Y0183172D02*
X0194987Y0183172D01*
X0193388Y0184770D02*
X0180531Y0184770D01*
X0178673Y0186369D02*
X0191790Y0186369D01*
X0189296Y0181573D02*
X0196585Y0181573D01*
X0200451Y0179975D02*
X0190297Y0179975D01*
X0190420Y0178376D02*
X0251369Y0178376D01*
X0251369Y0176778D02*
X0243420Y0176778D01*
X0243404Y0176793D02*
X0241188Y0177711D01*
X0238790Y0177711D01*
X0236574Y0176793D01*
X0234878Y0175097D01*
X0233960Y0172881D01*
X0233960Y0170483D01*
X0234878Y0168267D01*
X0236574Y0166571D01*
X0238790Y0165653D01*
X0241188Y0165653D01*
X0243404Y0166571D01*
X0245100Y0168267D01*
X0246018Y0170483D01*
X0246018Y0172881D01*
X0245100Y0175097D01*
X0243404Y0176793D01*
X0245018Y0175179D02*
X0251369Y0175179D01*
X0251369Y0173581D02*
X0245728Y0173581D01*
X0246018Y0171982D02*
X0251369Y0171982D01*
X0251369Y0170384D02*
X0245977Y0170384D01*
X0245315Y0168785D02*
X0251369Y0168785D01*
X0251369Y0167187D02*
X0244020Y0167187D01*
X0251369Y0165588D02*
X0222155Y0165588D01*
X0222396Y0163990D02*
X0251369Y0163990D01*
X0251369Y0162391D02*
X0222306Y0162391D01*
X0221644Y0160793D02*
X0251369Y0160793D01*
X0250288Y0159194D02*
X0220280Y0159194D01*
X0212454Y0159194D02*
X0189239Y0159194D01*
X0189522Y0157596D02*
X0248690Y0157596D01*
X0247091Y0155997D02*
X0189474Y0155997D01*
X0188812Y0154399D02*
X0245493Y0154399D01*
X0243894Y0152800D02*
X0187508Y0152800D01*
X0182155Y0151202D02*
X0242296Y0151202D01*
X0240697Y0149603D02*
X0180556Y0149603D01*
X0178958Y0148005D02*
X0239099Y0148005D01*
X0237500Y0146406D02*
X0177359Y0146406D01*
X0176818Y0139719D02*
X0174420Y0139719D01*
X0172204Y0138801D01*
X0170508Y0137105D01*
X0169590Y0134889D01*
X0169590Y0132490D01*
X0170508Y0130275D01*
X0172204Y0128579D01*
X0174420Y0127661D01*
X0176818Y0127661D01*
X0179034Y0128579D01*
X0180730Y0130275D01*
X0181648Y0132490D01*
X0181648Y0134889D01*
X0180730Y0137105D01*
X0179034Y0138801D01*
X0176818Y0139719D01*
X0179422Y0138413D02*
X0276528Y0138413D01*
X0276528Y0136815D02*
X0180850Y0136815D01*
X0181512Y0135216D02*
X0276528Y0135216D01*
X0276528Y0133618D02*
X0181648Y0133618D01*
X0181453Y0132019D02*
X0276528Y0132019D01*
X0276528Y0130421D02*
X0180791Y0130421D01*
X0179278Y0128822D02*
X0276528Y0128822D01*
X0276528Y0127224D02*
X0106562Y0127224D01*
X0106562Y0128822D02*
X0123928Y0128822D01*
X0122416Y0130421D02*
X0106562Y0130421D01*
X0106562Y0132019D02*
X0121753Y0132019D01*
X0121558Y0133618D02*
X0106562Y0133618D01*
X0106562Y0135216D02*
X0121694Y0135216D01*
X0122356Y0136815D02*
X0106562Y0136815D01*
X0106562Y0138413D02*
X0123785Y0138413D01*
X0127587Y0133690D02*
X0157312Y0133690D01*
X0167154Y0143532D01*
X0238020Y0143532D01*
X0253769Y0159280D01*
X0253769Y0182902D01*
X0257509Y0186643D01*
X0257509Y0198847D01*
X0265776Y0198847D01*
X0273454Y0206524D01*
X0273454Y0227587D01*
X0265383Y0235658D01*
X0261387Y0231127D02*
X0244357Y0231127D01*
X0244357Y0229529D02*
X0268118Y0229529D01*
X0269717Y0227930D02*
X0260080Y0227930D01*
X0262173Y0226332D02*
X0271054Y0226332D01*
X0271054Y0224733D02*
X0263097Y0224733D01*
X0263538Y0223135D02*
X0271054Y0223135D01*
X0271054Y0221536D02*
X0263538Y0221536D01*
X0263000Y0219938D02*
X0262986Y0219938D01*
X0259827Y0216741D02*
X0259433Y0216741D01*
X0259354Y0215142D02*
X0244357Y0215142D01*
X0244357Y0216741D02*
X0255584Y0216741D01*
X0253112Y0218339D02*
X0244357Y0218339D01*
X0244357Y0219938D02*
X0252031Y0219938D01*
X0251480Y0221536D02*
X0244357Y0221536D01*
X0244357Y0223135D02*
X0251480Y0223135D01*
X0251920Y0224733D02*
X0244357Y0224733D01*
X0244357Y0226332D02*
X0252844Y0226332D01*
X0254937Y0227930D02*
X0244357Y0227930D01*
X0244357Y0232726D02*
X0260072Y0232726D01*
X0259409Y0234324D02*
X0245592Y0234324D01*
X0247191Y0235923D02*
X0259354Y0235923D01*
X0259628Y0237521D02*
X0248789Y0237521D01*
X0250388Y0239120D02*
X0260318Y0239120D01*
X0260292Y0240718D02*
X0261916Y0240718D01*
X0262260Y0242317D02*
X0276528Y0242317D01*
X0276528Y0243915D02*
X0263133Y0243915D01*
X0263538Y0245514D02*
X0276528Y0245514D01*
X0276528Y0247112D02*
X0263538Y0247112D01*
X0262950Y0248711D02*
X0276528Y0248711D01*
X0276528Y0240718D02*
X0268849Y0240718D01*
X0270448Y0239120D02*
X0276528Y0239120D01*
X0276528Y0237521D02*
X0271137Y0237521D01*
X0271412Y0235923D02*
X0276528Y0235923D01*
X0276528Y0234324D02*
X0271356Y0234324D01*
X0271709Y0232726D02*
X0276528Y0232726D01*
X0276528Y0231127D02*
X0273308Y0231127D01*
X0274906Y0229529D02*
X0276528Y0229529D01*
X0276528Y0227930D02*
X0275854Y0227930D01*
X0275854Y0226332D02*
X0276528Y0226332D01*
X0276528Y0224733D02*
X0275854Y0224733D01*
X0275854Y0223135D02*
X0276528Y0223135D01*
X0276528Y0221536D02*
X0275854Y0221536D01*
X0275854Y0219938D02*
X0276528Y0219938D01*
X0276528Y0218339D02*
X0275854Y0218339D01*
X0275854Y0216741D02*
X0276528Y0216741D01*
X0276528Y0215142D02*
X0275854Y0215142D01*
X0275854Y0213543D02*
X0276528Y0213543D01*
X0276528Y0211945D02*
X0275854Y0211945D01*
X0275854Y0210346D02*
X0276528Y0210346D01*
X0276528Y0208748D02*
X0275854Y0208748D01*
X0275854Y0207149D02*
X0276528Y0207149D01*
X0276528Y0205551D02*
X0275648Y0205551D01*
X0276528Y0203952D02*
X0274276Y0203952D01*
X0272677Y0202354D02*
X0276528Y0202354D01*
X0276528Y0200755D02*
X0271079Y0200755D01*
X0269480Y0199157D02*
X0276528Y0199157D01*
X0276528Y0197558D02*
X0267882Y0197558D01*
X0265889Y0202354D02*
X0262528Y0202354D01*
X0260930Y0203952D02*
X0267487Y0203952D01*
X0269086Y0205551D02*
X0236504Y0205551D01*
X0234906Y0203952D02*
X0254087Y0203952D01*
X0252489Y0202354D02*
X0233307Y0202354D01*
X0231709Y0200755D02*
X0251773Y0200755D01*
X0251480Y0199157D02*
X0230110Y0199157D01*
X0228512Y0197558D02*
X0251517Y0197558D01*
X0252179Y0195960D02*
X0226913Y0195960D01*
X0225315Y0194361D02*
X0253468Y0194361D01*
X0255109Y0192763D02*
X0223716Y0192763D01*
X0222117Y0191164D02*
X0255109Y0191164D01*
X0255109Y0189566D02*
X0220519Y0189566D01*
X0218335Y0190776D02*
X0241957Y0214398D01*
X0241957Y0234083D01*
X0253965Y0246091D01*
X0257509Y0246091D01*
X0252068Y0248711D02*
X0215705Y0248711D01*
X0216294Y0247112D02*
X0251480Y0247112D01*
X0249994Y0245514D02*
X0216294Y0245514D01*
X0215889Y0243915D02*
X0248395Y0243915D01*
X0246797Y0242317D02*
X0215016Y0242317D01*
X0214723Y0240770D02*
X0213027Y0239073D01*
X0212109Y0236858D01*
X0212109Y0234459D01*
X0213027Y0232243D01*
X0214723Y0230547D01*
X0216939Y0229629D01*
X0219338Y0229629D01*
X0221554Y0230547D01*
X0223250Y0232243D01*
X0224168Y0234459D01*
X0224168Y0236858D01*
X0223250Y0239073D01*
X0221554Y0240770D01*
X0219338Y0241687D01*
X0216939Y0241687D01*
X0214723Y0240770D01*
X0214672Y0240718D02*
X0213047Y0240718D01*
X0213073Y0239120D02*
X0110394Y0239120D01*
X0108796Y0240718D02*
X0124329Y0240718D01*
X0122639Y0242317D02*
X0107197Y0242317D01*
X0105599Y0243915D02*
X0121881Y0243915D01*
X0121558Y0245514D02*
X0104000Y0245514D01*
X0102402Y0247112D02*
X0121566Y0247112D01*
X0122228Y0248711D02*
X0093658Y0248711D01*
X0088217Y0246091D02*
X0100028Y0246091D01*
X0123847Y0222272D01*
X0183493Y0222272D01*
X0177986Y0224733D02*
X0124781Y0224733D01*
X0123182Y0226332D02*
X0179026Y0226332D01*
X0181397Y0227930D02*
X0121584Y0227930D01*
X0119985Y0229529D02*
X0239557Y0229529D01*
X0239557Y0231127D02*
X0222134Y0231127D01*
X0223450Y0232726D02*
X0239557Y0232726D01*
X0239557Y0234324D02*
X0224112Y0234324D01*
X0224168Y0235923D02*
X0240403Y0235923D01*
X0242001Y0237521D02*
X0223893Y0237521D01*
X0223204Y0239120D02*
X0243600Y0239120D01*
X0245198Y0240718D02*
X0221605Y0240718D01*
X0212827Y0232726D02*
X0116788Y0232726D01*
X0115190Y0234324D02*
X0212165Y0234324D01*
X0212109Y0235923D02*
X0113591Y0235923D01*
X0111993Y0237521D02*
X0212384Y0237521D01*
X0207482Y0240718D02*
X0179092Y0240718D01*
X0180719Y0242317D02*
X0205513Y0242317D01*
X0204640Y0243915D02*
X0181525Y0243915D01*
X0181733Y0247112D02*
X0204235Y0247112D01*
X0204235Y0245514D02*
X0176295Y0245514D01*
X0174942Y0245514D02*
X0133617Y0245514D01*
X0133609Y0247112D02*
X0169505Y0247112D01*
X0170063Y0248711D02*
X0132947Y0248711D01*
X0133293Y0243915D02*
X0169712Y0243915D01*
X0170519Y0242317D02*
X0132536Y0242317D01*
X0130846Y0240718D02*
X0172146Y0240718D01*
X0174942Y0240718D02*
X0176295Y0240718D01*
X0176295Y0242317D02*
X0174942Y0242317D01*
X0174942Y0243915D02*
X0176295Y0243915D01*
X0181175Y0248711D02*
X0204824Y0248711D01*
X0214143Y0231127D02*
X0118387Y0231127D01*
X0123213Y0219938D02*
X0098474Y0219938D01*
X0100677Y0218339D02*
X0178900Y0218339D01*
X0181093Y0216741D02*
X0101647Y0216741D01*
X0102120Y0215142D02*
X0212109Y0215142D01*
X0212109Y0215598D02*
X0212109Y0213199D01*
X0213027Y0210983D01*
X0214723Y0209287D01*
X0216939Y0208369D01*
X0219338Y0208369D01*
X0221554Y0209287D01*
X0223250Y0210983D01*
X0224168Y0213199D01*
X0224168Y0215598D01*
X0223250Y0217814D01*
X0221554Y0219510D01*
X0219338Y0220428D01*
X0216939Y0220428D01*
X0215739Y0219930D01*
X0216294Y0221270D01*
X0216294Y0223669D01*
X0215376Y0225885D01*
X0213680Y0227581D01*
X0211464Y0228498D01*
X0209065Y0228498D01*
X0206849Y0227581D01*
X0205153Y0225885D01*
X0204235Y0223669D01*
X0204235Y0221270D01*
X0205153Y0219054D01*
X0206849Y0217358D01*
X0209065Y0216440D01*
X0211464Y0216440D01*
X0212664Y0216937D01*
X0212109Y0215598D01*
X0212189Y0216741D02*
X0212583Y0216741D01*
X0212109Y0213543D02*
X0102120Y0213543D01*
X0101601Y0211945D02*
X0212629Y0211945D01*
X0213664Y0210346D02*
X0100566Y0210346D01*
X0098205Y0208748D02*
X0138692Y0208748D01*
X0139595Y0206524D02*
X0131721Y0198650D01*
X0127587Y0198650D01*
X0123350Y0194361D02*
X0096097Y0194361D01*
X0094499Y0195960D02*
X0122176Y0195960D01*
X0121558Y0197558D02*
X0094209Y0197558D01*
X0094246Y0199157D02*
X0121558Y0199157D01*
X0121933Y0200755D02*
X0093953Y0200755D01*
X0093237Y0202354D02*
X0122764Y0202354D01*
X0124633Y0203952D02*
X0091639Y0203952D01*
X0088217Y0198847D02*
X0119910Y0167154D01*
X0120075Y0170384D02*
X0159636Y0170384D01*
X0159710Y0171982D02*
X0153410Y0171982D01*
X0154683Y0173581D02*
X0160642Y0173581D01*
X0160459Y0168785D02*
X0157107Y0168785D01*
X0155114Y0163990D02*
X0010537Y0163990D01*
X0010537Y0162391D02*
X0111753Y0162391D01*
X0112645Y0163283D02*
X0113527Y0163649D01*
X0128262Y0163649D01*
X0129144Y0163283D01*
X0146495Y0145932D01*
X0152679Y0145932D01*
X0153315Y0146568D01*
X0154631Y0147113D01*
X0156056Y0147113D01*
X0157372Y0146568D01*
X0158379Y0145561D01*
X0158924Y0144245D01*
X0158924Y0142820D01*
X0158379Y0141504D01*
X0157372Y0140496D01*
X0156056Y0139951D01*
X0154631Y0139951D01*
X0153315Y0140496D01*
X0152679Y0141132D01*
X0145023Y0141132D01*
X0144141Y0141498D01*
X0126790Y0158849D01*
X0114999Y0158849D01*
X0106562Y0150412D01*
X0106562Y0087142D01*
X0107198Y0086506D01*
X0107743Y0085189D01*
X0107743Y0083765D01*
X0107198Y0082449D01*
X0106191Y0081441D01*
X0104875Y0080896D01*
X0103450Y0080896D01*
X0102134Y0081441D01*
X0101126Y0082449D01*
X0100581Y0083765D01*
X0100581Y0085189D01*
X0101126Y0086506D01*
X0101762Y0087142D01*
X0101762Y0151884D01*
X0102128Y0152766D01*
X0102803Y0153441D01*
X0112645Y0163283D01*
X0114005Y0161249D02*
X0104162Y0151406D01*
X0104162Y0084477D01*
X0100777Y0085663D02*
X0010537Y0085663D01*
X0010537Y0087261D02*
X0101762Y0087261D01*
X0101762Y0088860D02*
X0010537Y0088860D01*
X0010537Y0090458D02*
X0101762Y0090458D01*
X0101762Y0092057D02*
X0010537Y0092057D01*
X0010537Y0093655D02*
X0101762Y0093655D01*
X0101762Y0095254D02*
X0010537Y0095254D01*
X0010537Y0096852D02*
X0101762Y0096852D01*
X0101762Y0098451D02*
X0083097Y0098451D01*
X0082330Y0098133D02*
X0084546Y0099051D01*
X0086242Y0100747D01*
X0087160Y0102963D01*
X0087160Y0105361D01*
X0086242Y0107577D01*
X0084546Y0109273D01*
X0082330Y0110191D01*
X0079931Y0110191D01*
X0077715Y0109273D01*
X0076019Y0107577D01*
X0075102Y0105361D01*
X0075102Y0102963D01*
X0076019Y0100747D01*
X0077715Y0099051D01*
X0079931Y0098133D01*
X0082330Y0098133D01*
X0079165Y0098451D02*
X0035065Y0098451D01*
X0034298Y0098133D02*
X0036514Y0099051D01*
X0038210Y0100747D01*
X0039128Y0102963D01*
X0039128Y0105361D01*
X0038210Y0107577D01*
X0036514Y0109273D01*
X0034298Y0110191D01*
X0031900Y0110191D01*
X0029684Y0109273D01*
X0027988Y0107577D01*
X0027070Y0105361D01*
X0027070Y0102963D01*
X0027988Y0100747D01*
X0029684Y0099051D01*
X0031900Y0098133D01*
X0034298Y0098133D01*
X0031133Y0098451D02*
X0010537Y0098451D01*
X0010537Y0100049D02*
X0028686Y0100049D01*
X0027615Y0101648D02*
X0010537Y0101648D01*
X0010537Y0103246D02*
X0027070Y0103246D01*
X0027070Y0104845D02*
X0010537Y0104845D01*
X0010537Y0106443D02*
X0027518Y0106443D01*
X0028452Y0108042D02*
X0010537Y0108042D01*
X0010537Y0109640D02*
X0030570Y0109640D01*
X0035629Y0109640D02*
X0078601Y0109640D01*
X0076484Y0108042D02*
X0037746Y0108042D01*
X0038680Y0106443D02*
X0075550Y0106443D01*
X0075102Y0104845D02*
X0039128Y0104845D01*
X0039128Y0103246D02*
X0075102Y0103246D01*
X0075646Y0101648D02*
X0038584Y0101648D01*
X0037513Y0100049D02*
X0076717Y0100049D01*
X0085544Y0100049D02*
X0101762Y0100049D01*
X0101762Y0101648D02*
X0086615Y0101648D01*
X0087160Y0103246D02*
X0101762Y0103246D01*
X0101762Y0104845D02*
X0087160Y0104845D01*
X0086712Y0106443D02*
X0101762Y0106443D01*
X0101762Y0108042D02*
X0085778Y0108042D01*
X0083660Y0109640D02*
X0101762Y0109640D01*
X0101762Y0111239D02*
X0010537Y0111239D01*
X0010537Y0112837D02*
X0101762Y0112837D01*
X0101762Y0114436D02*
X0010537Y0114436D01*
X0010537Y0116034D02*
X0101762Y0116034D01*
X0101762Y0117633D02*
X0010537Y0117633D01*
X0010537Y0119231D02*
X0101762Y0119231D01*
X0101762Y0120830D02*
X0010537Y0120830D01*
X0010537Y0122428D02*
X0086180Y0122428D01*
X0085589Y0122673D02*
X0087805Y0121755D01*
X0090204Y0121755D01*
X0092420Y0122673D01*
X0094116Y0124369D01*
X0095034Y0126585D01*
X0095034Y0128984D01*
X0094116Y0131199D01*
X0092420Y0132895D01*
X0090204Y0133813D01*
X0087805Y0133813D01*
X0085589Y0132895D01*
X0083893Y0131199D01*
X0082976Y0128984D01*
X0082976Y0126585D01*
X0083893Y0124369D01*
X0085589Y0122673D01*
X0084236Y0124027D02*
X0010537Y0124027D01*
X0010537Y0125625D02*
X0083373Y0125625D01*
X0082976Y0127224D02*
X0010537Y0127224D01*
X0010537Y0128822D02*
X0082976Y0128822D01*
X0083571Y0130421D02*
X0010537Y0130421D01*
X0010537Y0132019D02*
X0084713Y0132019D01*
X0087334Y0133618D02*
X0010537Y0133618D01*
X0010537Y0135216D02*
X0101762Y0135216D01*
X0101762Y0133618D02*
X0090676Y0133618D01*
X0093296Y0132019D02*
X0101762Y0132019D01*
X0101762Y0130421D02*
X0094438Y0130421D01*
X0095034Y0128822D02*
X0101762Y0128822D01*
X0101762Y0127224D02*
X0095034Y0127224D01*
X0094636Y0125625D02*
X0101762Y0125625D01*
X0101762Y0124027D02*
X0093774Y0124027D01*
X0091829Y0122428D02*
X0101762Y0122428D01*
X0106562Y0122428D02*
X0276528Y0122428D01*
X0276528Y0120830D02*
X0267084Y0120830D01*
X0267026Y0120888D02*
X0264810Y0121805D01*
X0262412Y0121805D01*
X0260196Y0120888D01*
X0258500Y0119192D01*
X0258079Y0118176D01*
X0237346Y0118176D01*
X0236464Y0117811D01*
X0177971Y0059318D01*
X0150929Y0059318D01*
X0150047Y0058953D01*
X0126790Y0035696D01*
X0075331Y0035696D01*
X0074695Y0036332D01*
X0073378Y0036877D01*
X0071954Y0036877D01*
X0070638Y0036332D01*
X0069630Y0035325D01*
X0069085Y0034008D01*
X0069085Y0032584D01*
X0069630Y0031268D01*
X0070638Y0030260D01*
X0071954Y0029715D01*
X0073378Y0029715D01*
X0074695Y0030260D01*
X0075331Y0030896D01*
X0128262Y0030896D01*
X0129144Y0031261D01*
X0152400Y0054518D01*
X0179443Y0054518D01*
X0180325Y0054883D01*
X0181000Y0055559D01*
X0238818Y0113376D01*
X0258079Y0113376D01*
X0258500Y0112361D01*
X0260196Y0110665D01*
X0262412Y0109747D01*
X0264810Y0109747D01*
X0267026Y0110665D01*
X0268722Y0112361D01*
X0269640Y0114577D01*
X0269640Y0116976D01*
X0268722Y0119192D01*
X0267026Y0120888D01*
X0268683Y0119231D02*
X0276528Y0119231D01*
X0276528Y0117633D02*
X0269368Y0117633D01*
X0269640Y0116034D02*
X0276528Y0116034D01*
X0276528Y0114436D02*
X0269582Y0114436D01*
X0268919Y0112837D02*
X0276528Y0112837D01*
X0276528Y0111239D02*
X0267600Y0111239D01*
X0263611Y0115776D02*
X0237824Y0115776D01*
X0178965Y0056918D01*
X0151406Y0056918D01*
X0127784Y0033296D01*
X0072666Y0033296D01*
X0069293Y0034510D02*
X0010537Y0034510D01*
X0010537Y0032912D02*
X0069085Y0032912D01*
X0069611Y0031313D02*
X0010537Y0031313D01*
X0010537Y0029715D02*
X0276528Y0029715D01*
X0276528Y0031313D02*
X0221390Y0031313D01*
X0221371Y0031268D02*
X0221917Y0032584D01*
X0221917Y0034008D01*
X0221371Y0035325D01*
X0220364Y0036332D01*
X0219048Y0036877D01*
X0218148Y0036877D01*
X0207884Y0047142D01*
X0207002Y0047507D01*
X0201847Y0047507D01*
X0201293Y0048846D01*
X0199436Y0050702D01*
X0197010Y0051707D01*
X0194385Y0051707D01*
X0191959Y0050702D01*
X0190102Y0048846D01*
X0189098Y0046420D01*
X0189098Y0043794D01*
X0190102Y0041368D01*
X0191959Y0039512D01*
X0194385Y0038507D01*
X0197010Y0038507D01*
X0199436Y0039512D01*
X0201293Y0041368D01*
X0201847Y0042707D01*
X0205530Y0042707D01*
X0214754Y0033483D01*
X0214754Y0032584D01*
X0215300Y0031268D01*
X0216307Y0030260D01*
X0217623Y0029715D01*
X0219048Y0029715D01*
X0220364Y0030260D01*
X0221371Y0031268D01*
X0221917Y0032912D02*
X0276528Y0032912D01*
X0276528Y0034510D02*
X0221709Y0034510D01*
X0220587Y0036109D02*
X0276528Y0036109D01*
X0276528Y0037707D02*
X0217318Y0037707D01*
X0215720Y0039306D02*
X0276528Y0039306D01*
X0276528Y0040904D02*
X0214121Y0040904D01*
X0212523Y0042503D02*
X0276528Y0042503D01*
X0276528Y0044101D02*
X0210924Y0044101D01*
X0209326Y0045700D02*
X0276528Y0045700D01*
X0276528Y0047298D02*
X0207506Y0047298D01*
X0206524Y0045107D02*
X0218335Y0033296D01*
X0214754Y0032912D02*
X0130794Y0032912D01*
X0132393Y0034510D02*
X0213727Y0034510D01*
X0212129Y0036109D02*
X0133991Y0036109D01*
X0135590Y0037707D02*
X0210530Y0037707D01*
X0208932Y0039306D02*
X0198939Y0039306D01*
X0200829Y0040904D02*
X0207333Y0040904D01*
X0205735Y0042503D02*
X0201763Y0042503D01*
X0206524Y0045107D02*
X0195698Y0045107D01*
X0189633Y0042503D02*
X0176172Y0042503D01*
X0175702Y0041368D02*
X0176707Y0043794D01*
X0176707Y0046420D01*
X0175702Y0048846D01*
X0173846Y0050702D01*
X0171420Y0051707D01*
X0168794Y0051707D01*
X0166368Y0050702D01*
X0164512Y0048846D01*
X0163507Y0046420D01*
X0163507Y0043794D01*
X0164512Y0041368D01*
X0166368Y0039512D01*
X0168794Y0038507D01*
X0171420Y0038507D01*
X0173846Y0039512D01*
X0175702Y0041368D01*
X0175238Y0040904D02*
X0190567Y0040904D01*
X0192457Y0039306D02*
X0173348Y0039306D01*
X0176707Y0044101D02*
X0189098Y0044101D01*
X0189098Y0045700D02*
X0176707Y0045700D01*
X0176343Y0047298D02*
X0189461Y0047298D01*
X0190154Y0048897D02*
X0175651Y0048897D01*
X0174053Y0050495D02*
X0191752Y0050495D01*
X0199643Y0050495D02*
X0276528Y0050495D01*
X0276528Y0048897D02*
X0201242Y0048897D01*
X0187126Y0061685D02*
X0276528Y0061685D01*
X0276528Y0063283D02*
X0188725Y0063283D01*
X0190323Y0064882D02*
X0276528Y0064882D01*
X0276528Y0066480D02*
X0191922Y0066480D01*
X0193520Y0068079D02*
X0276528Y0068079D01*
X0276528Y0069677D02*
X0195119Y0069677D01*
X0196717Y0071276D02*
X0276528Y0071276D01*
X0276528Y0072874D02*
X0198316Y0072874D01*
X0199914Y0074473D02*
X0276528Y0074473D01*
X0276528Y0076072D02*
X0201513Y0076072D01*
X0203111Y0077670D02*
X0276528Y0077670D01*
X0276528Y0079269D02*
X0204710Y0079269D01*
X0206308Y0080867D02*
X0276528Y0080867D01*
X0276528Y0082466D02*
X0207907Y0082466D01*
X0209505Y0084064D02*
X0276528Y0084064D01*
X0276528Y0085663D02*
X0211104Y0085663D01*
X0212702Y0087261D02*
X0276528Y0087261D01*
X0276528Y0088860D02*
X0214301Y0088860D01*
X0215899Y0090458D02*
X0276528Y0090458D01*
X0276528Y0092057D02*
X0217498Y0092057D01*
X0219096Y0093655D02*
X0276528Y0093655D01*
X0276528Y0095254D02*
X0220695Y0095254D01*
X0222294Y0096852D02*
X0276528Y0096852D01*
X0276528Y0098451D02*
X0223892Y0098451D01*
X0225491Y0100049D02*
X0276528Y0100049D01*
X0276528Y0101648D02*
X0227089Y0101648D01*
X0228688Y0103246D02*
X0276528Y0103246D01*
X0276528Y0104845D02*
X0230286Y0104845D01*
X0231885Y0106443D02*
X0276528Y0106443D01*
X0276528Y0108042D02*
X0233483Y0108042D01*
X0235082Y0109640D02*
X0276528Y0109640D01*
X0276528Y0124027D02*
X0106562Y0124027D01*
X0106562Y0125625D02*
X0276528Y0125625D01*
X0276528Y0140012D02*
X0167028Y0140012D01*
X0165430Y0138413D02*
X0171816Y0138413D01*
X0170388Y0136815D02*
X0163831Y0136815D01*
X0162233Y0135216D02*
X0169725Y0135216D01*
X0169590Y0133618D02*
X0160634Y0133618D01*
X0159036Y0132019D02*
X0169785Y0132019D01*
X0170447Y0130421D02*
X0132759Y0130421D01*
X0131246Y0128822D02*
X0171960Y0128822D01*
X0174160Y0122049D02*
X0173228Y0121746D01*
X0172354Y0121301D01*
X0171561Y0120725D01*
X0170868Y0120031D01*
X0170291Y0119238D01*
X0169846Y0118364D01*
X0169543Y0117432D01*
X0169419Y0116650D01*
X0174942Y0116650D01*
X0174942Y0115297D01*
X0169419Y0115297D01*
X0169543Y0114515D01*
X0169846Y0113582D01*
X0170291Y0112708D01*
X0170868Y0111915D01*
X0171561Y0111222D01*
X0172354Y0110646D01*
X0173228Y0110200D01*
X0174160Y0109897D01*
X0174942Y0109774D01*
X0174942Y0115297D01*
X0176295Y0115297D01*
X0176295Y0109774D01*
X0177078Y0109897D01*
X0178010Y0110200D01*
X0178884Y0110646D01*
X0179677Y0111222D01*
X0180370Y0111915D01*
X0180947Y0112708D01*
X0181392Y0113582D01*
X0181695Y0114515D01*
X0181819Y0115297D01*
X0176295Y0115297D01*
X0176295Y0116650D01*
X0174942Y0116650D01*
X0174942Y0122173D01*
X0174160Y0122049D01*
X0174942Y0120830D02*
X0176295Y0120830D01*
X0176295Y0122173D02*
X0177078Y0122049D01*
X0178010Y0121746D01*
X0178884Y0121301D01*
X0179677Y0120725D01*
X0180370Y0120031D01*
X0180947Y0119238D01*
X0181392Y0118364D01*
X0181695Y0117432D01*
X0181819Y0116650D01*
X0176295Y0116650D01*
X0176295Y0122173D01*
X0179532Y0120830D02*
X0212894Y0120830D01*
X0212952Y0120888D02*
X0211256Y0119192D01*
X0210338Y0116976D01*
X0210338Y0114577D01*
X0211256Y0112361D01*
X0212952Y0110665D01*
X0215168Y0109747D01*
X0217566Y0109747D01*
X0219782Y0110665D01*
X0221478Y0112361D01*
X0222396Y0114577D01*
X0222396Y0116976D01*
X0221478Y0119192D01*
X0219782Y0120888D01*
X0217566Y0121805D01*
X0215168Y0121805D01*
X0212952Y0120888D01*
X0211295Y0119231D02*
X0180950Y0119231D01*
X0181629Y0117633D02*
X0210610Y0117633D01*
X0210338Y0116034D02*
X0176295Y0116034D01*
X0174942Y0116034D02*
X0133617Y0116034D01*
X0133617Y0117172D02*
X0133617Y0114774D01*
X0132699Y0112558D01*
X0131003Y0110862D01*
X0128787Y0109944D01*
X0126388Y0109944D01*
X0124172Y0110862D01*
X0122476Y0112558D01*
X0121558Y0114774D01*
X0121558Y0117172D01*
X0122476Y0119388D01*
X0124172Y0121084D01*
X0126388Y0122002D01*
X0128787Y0122002D01*
X0131003Y0121084D01*
X0132699Y0119388D01*
X0133617Y0117172D01*
X0133426Y0117633D02*
X0169608Y0117633D01*
X0170288Y0119231D02*
X0132764Y0119231D01*
X0131257Y0120830D02*
X0171706Y0120830D01*
X0174942Y0119231D02*
X0176295Y0119231D01*
X0176295Y0117633D02*
X0174942Y0117633D01*
X0174942Y0114436D02*
X0176295Y0114436D01*
X0176295Y0112837D02*
X0174942Y0112837D01*
X0174942Y0111239D02*
X0176295Y0111239D01*
X0179694Y0111239D02*
X0212378Y0111239D01*
X0211058Y0112837D02*
X0181012Y0112837D01*
X0181669Y0114436D02*
X0210396Y0114436D01*
X0220356Y0111239D02*
X0229892Y0111239D01*
X0231490Y0112837D02*
X0221675Y0112837D01*
X0222337Y0114436D02*
X0233089Y0114436D01*
X0234687Y0116034D02*
X0222396Y0116034D01*
X0222124Y0117633D02*
X0236286Y0117633D01*
X0238279Y0112837D02*
X0258303Y0112837D01*
X0259622Y0111239D02*
X0236680Y0111239D01*
X0228293Y0109640D02*
X0106562Y0109640D01*
X0106562Y0108042D02*
X0226695Y0108042D01*
X0225096Y0106443D02*
X0106562Y0106443D01*
X0106562Y0104845D02*
X0223498Y0104845D01*
X0221899Y0103246D02*
X0106562Y0103246D01*
X0106562Y0101648D02*
X0220301Y0101648D01*
X0218702Y0100049D02*
X0106562Y0100049D01*
X0106562Y0098451D02*
X0144567Y0098451D01*
X0144433Y0098317D02*
X0143888Y0097001D01*
X0143888Y0095576D01*
X0144433Y0094260D01*
X0145069Y0093624D01*
X0145069Y0089605D01*
X0129802Y0074338D01*
X0128787Y0074758D01*
X0126388Y0074758D01*
X0124172Y0073840D01*
X0122476Y0072144D01*
X0121558Y0069928D01*
X0121558Y0067530D01*
X0122476Y0065314D01*
X0124172Y0063618D01*
X0126388Y0062700D01*
X0128787Y0062700D01*
X0131003Y0063618D01*
X0132699Y0065314D01*
X0133617Y0067530D01*
X0133617Y0069928D01*
X0133196Y0070944D01*
X0149504Y0087252D01*
X0149869Y0088134D01*
X0149869Y0093624D01*
X0150505Y0094260D01*
X0151050Y0095576D01*
X0151050Y0097001D01*
X0150505Y0098317D01*
X0149498Y0099324D01*
X0148182Y0099869D01*
X0146757Y0099869D01*
X0145441Y0099324D01*
X0144433Y0098317D01*
X0143888Y0096852D02*
X0106562Y0096852D01*
X0106562Y0095254D02*
X0144022Y0095254D01*
X0145038Y0093655D02*
X0106562Y0093655D01*
X0106562Y0092057D02*
X0145069Y0092057D01*
X0145069Y0090458D02*
X0106562Y0090458D01*
X0106562Y0088860D02*
X0144324Y0088860D01*
X0142725Y0087261D02*
X0106562Y0087261D01*
X0107547Y0085663D02*
X0141127Y0085663D01*
X0139528Y0084064D02*
X0107743Y0084064D01*
X0107205Y0082466D02*
X0137930Y0082466D01*
X0136331Y0080867D02*
X0010537Y0080867D01*
X0010537Y0079269D02*
X0134733Y0079269D01*
X0133134Y0077670D02*
X0010537Y0077670D01*
X0010537Y0076072D02*
X0131536Y0076072D01*
X0129937Y0074473D02*
X0129475Y0074473D01*
X0133528Y0071276D02*
X0170148Y0071276D01*
X0170508Y0072144D02*
X0169590Y0069928D01*
X0169590Y0067530D01*
X0170508Y0065314D01*
X0172204Y0063618D01*
X0174420Y0062700D01*
X0176818Y0062700D01*
X0179034Y0063618D01*
X0180730Y0065314D01*
X0181648Y0067530D01*
X0181648Y0069928D01*
X0180730Y0072144D01*
X0179034Y0073840D01*
X0176818Y0074758D01*
X0174420Y0074758D01*
X0172204Y0073840D01*
X0170508Y0072144D01*
X0171238Y0072874D02*
X0135127Y0072874D01*
X0136725Y0074473D02*
X0173731Y0074473D01*
X0177507Y0074473D02*
X0193126Y0074473D01*
X0191528Y0072874D02*
X0180000Y0072874D01*
X0181090Y0071276D02*
X0189929Y0071276D01*
X0188331Y0069677D02*
X0181648Y0069677D01*
X0181648Y0068079D02*
X0186732Y0068079D01*
X0185134Y0066480D02*
X0181213Y0066480D01*
X0180298Y0064882D02*
X0183535Y0064882D01*
X0181937Y0063283D02*
X0178227Y0063283D01*
X0180338Y0061685D02*
X0010537Y0061685D01*
X0010537Y0063283D02*
X0124980Y0063283D01*
X0122908Y0064882D02*
X0010537Y0064882D01*
X0010537Y0066480D02*
X0121993Y0066480D01*
X0121558Y0068079D02*
X0010537Y0068079D01*
X0010537Y0069677D02*
X0121558Y0069677D01*
X0122116Y0071276D02*
X0010537Y0071276D01*
X0010537Y0072874D02*
X0123206Y0072874D01*
X0125699Y0074473D02*
X0010537Y0074473D01*
X0010537Y0082466D02*
X0101119Y0082466D01*
X0100581Y0084064D02*
X0010537Y0084064D01*
X0010537Y0060086D02*
X0178740Y0060086D01*
X0182331Y0056889D02*
X0276528Y0056889D01*
X0276528Y0055291D02*
X0180732Y0055291D01*
X0183929Y0058488D02*
X0276528Y0058488D01*
X0276528Y0060086D02*
X0185528Y0060086D01*
X0173011Y0063283D02*
X0130195Y0063283D01*
X0132267Y0064882D02*
X0170940Y0064882D01*
X0170024Y0066480D02*
X0133182Y0066480D01*
X0133617Y0068079D02*
X0169590Y0068079D01*
X0169590Y0069677D02*
X0133617Y0069677D01*
X0127587Y0068729D02*
X0147469Y0088611D01*
X0147469Y0096288D01*
X0149901Y0093655D02*
X0177507Y0093655D01*
X0177464Y0093550D02*
X0177464Y0091152D01*
X0178382Y0088936D01*
X0180078Y0087240D01*
X0182294Y0086322D01*
X0184692Y0086322D01*
X0186908Y0087240D01*
X0188604Y0088936D01*
X0189522Y0091152D01*
X0189522Y0093550D01*
X0188604Y0095766D01*
X0186908Y0097462D01*
X0184692Y0098380D01*
X0182294Y0098380D01*
X0180078Y0097462D01*
X0178382Y0095766D01*
X0177464Y0093550D01*
X0177464Y0092057D02*
X0149869Y0092057D01*
X0149869Y0090458D02*
X0177751Y0090458D01*
X0178458Y0088860D02*
X0149869Y0088860D01*
X0149508Y0087261D02*
X0180057Y0087261D01*
X0186929Y0087261D02*
X0205914Y0087261D01*
X0204316Y0085663D02*
X0147915Y0085663D01*
X0146316Y0084064D02*
X0202717Y0084064D01*
X0201119Y0082466D02*
X0144718Y0082466D01*
X0143119Y0080867D02*
X0199520Y0080867D01*
X0197922Y0079269D02*
X0141521Y0079269D01*
X0139922Y0077670D02*
X0196323Y0077670D01*
X0194725Y0076072D02*
X0138324Y0076072D01*
X0149582Y0058488D02*
X0010537Y0058488D01*
X0010537Y0056889D02*
X0147983Y0056889D01*
X0146385Y0055291D02*
X0010537Y0055291D01*
X0010537Y0053692D02*
X0144786Y0053692D01*
X0143188Y0052094D02*
X0010537Y0052094D01*
X0010537Y0050495D02*
X0087421Y0050495D01*
X0087628Y0050702D02*
X0085772Y0048846D01*
X0084767Y0046420D01*
X0084767Y0043794D01*
X0085772Y0041368D01*
X0087628Y0039512D01*
X0090054Y0038507D01*
X0092680Y0038507D01*
X0095106Y0039512D01*
X0096962Y0041368D01*
X0097967Y0043794D01*
X0097967Y0046420D01*
X0096962Y0048846D01*
X0095106Y0050702D01*
X0092680Y0051707D01*
X0090054Y0051707D01*
X0087628Y0050702D01*
X0085823Y0048897D02*
X0010537Y0048897D01*
X0010537Y0047298D02*
X0085131Y0047298D01*
X0084767Y0045700D02*
X0010537Y0045700D01*
X0010537Y0044101D02*
X0084767Y0044101D01*
X0085302Y0042503D02*
X0010537Y0042503D01*
X0010537Y0040904D02*
X0086236Y0040904D01*
X0088126Y0039306D02*
X0010537Y0039306D01*
X0010537Y0037707D02*
X0128801Y0037707D01*
X0127203Y0036109D02*
X0074918Y0036109D01*
X0070414Y0036109D02*
X0010537Y0036109D01*
X0010537Y0028116D02*
X0276528Y0028116D01*
X0276528Y0026518D02*
X0180082Y0026518D01*
X0180015Y0026585D02*
X0177902Y0026585D01*
X0175790Y0026585D01*
X0172802Y0023598D01*
X0172802Y0021485D01*
X0172802Y0019373D01*
X0175790Y0016385D01*
X0177902Y0016385D01*
X0177902Y0021485D01*
X0172802Y0021485D01*
X0177902Y0021485D01*
X0177902Y0021485D01*
X0177902Y0021485D01*
X0177902Y0026585D01*
X0177902Y0021485D01*
X0177902Y0021485D01*
X0177902Y0016385D01*
X0180015Y0016385D01*
X0183002Y0019373D01*
X0183002Y0021485D01*
X0183002Y0023598D01*
X0180015Y0026585D01*
X0177902Y0026518D02*
X0177902Y0026518D01*
X0177902Y0024919D02*
X0177902Y0024919D01*
X0177902Y0023321D02*
X0177902Y0023321D01*
X0177902Y0021722D02*
X0177902Y0021722D01*
X0177902Y0021485D02*
X0183002Y0021485D01*
X0177902Y0021485D01*
X0177902Y0021485D01*
X0177902Y0020124D02*
X0177902Y0020124D01*
X0177902Y0018525D02*
X0177902Y0018525D01*
X0177902Y0016927D02*
X0177902Y0016927D01*
X0175248Y0016927D02*
X0111816Y0016927D01*
X0111275Y0016385D02*
X0114262Y0019373D01*
X0114262Y0021485D01*
X0109162Y0021485D01*
X0104062Y0021485D01*
X0104062Y0019373D01*
X0107050Y0016385D01*
X0109162Y0016385D01*
X0109162Y0021485D01*
X0109162Y0021485D01*
X0104062Y0021485D01*
X0104062Y0023598D01*
X0107050Y0026585D01*
X0109162Y0026585D01*
X0109162Y0021485D01*
X0109162Y0021485D01*
X0109162Y0021485D01*
X0109162Y0016385D01*
X0111275Y0016385D01*
X0109162Y0016927D02*
X0109162Y0016927D01*
X0109162Y0018525D02*
X0109162Y0018525D01*
X0109162Y0020124D02*
X0109162Y0020124D01*
X0109162Y0021485D02*
X0109162Y0021485D01*
X0109162Y0026585D01*
X0111275Y0026585D01*
X0114262Y0023598D01*
X0114262Y0021485D01*
X0109162Y0021485D01*
X0109162Y0021722D02*
X0109162Y0021722D01*
X0109162Y0023321D02*
X0109162Y0023321D01*
X0109162Y0024919D02*
X0109162Y0024919D01*
X0109162Y0026518D02*
X0109162Y0026518D01*
X0106982Y0026518D02*
X0010537Y0026518D01*
X0010537Y0024919D02*
X0095667Y0024919D01*
X0094262Y0023515D02*
X0097133Y0026385D01*
X0101192Y0026385D01*
X0104062Y0023515D01*
X0104062Y0019455D01*
X0101192Y0016585D01*
X0097133Y0016585D01*
X0094262Y0019455D01*
X0094262Y0023515D01*
X0094262Y0023321D02*
X0010537Y0023321D01*
X0010537Y0021722D02*
X0094262Y0021722D01*
X0094262Y0020124D02*
X0010537Y0020124D01*
X0010537Y0018525D02*
X0095192Y0018525D01*
X0096791Y0016927D02*
X0010537Y0016927D01*
X0010537Y0015328D02*
X0276528Y0015328D01*
X0276528Y0013730D02*
X0010537Y0013730D01*
X0010537Y0012131D02*
X0276528Y0012131D01*
X0276528Y0016927D02*
X0190274Y0016927D01*
X0189932Y0016585D02*
X0192802Y0019455D01*
X0192802Y0023515D01*
X0189932Y0026385D01*
X0185873Y0026385D01*
X0183002Y0023515D01*
X0183002Y0019455D01*
X0185873Y0016585D01*
X0189932Y0016585D01*
X0191872Y0018525D02*
X0276528Y0018525D01*
X0276528Y0020124D02*
X0192802Y0020124D01*
X0192802Y0021722D02*
X0276528Y0021722D01*
X0276528Y0023321D02*
X0192802Y0023321D01*
X0191398Y0024919D02*
X0276528Y0024919D01*
X0276528Y0052094D02*
X0149976Y0052094D01*
X0151575Y0053692D02*
X0276528Y0053692D01*
X0217104Y0098451D02*
X0150371Y0098451D01*
X0151050Y0096852D02*
X0179467Y0096852D01*
X0178169Y0095254D02*
X0150917Y0095254D01*
X0132814Y0112837D02*
X0170226Y0112837D01*
X0169569Y0114436D02*
X0133476Y0114436D01*
X0131379Y0111239D02*
X0171544Y0111239D01*
X0187518Y0096852D02*
X0215505Y0096852D01*
X0213907Y0095254D02*
X0188817Y0095254D01*
X0189479Y0093655D02*
X0212308Y0093655D01*
X0210710Y0092057D02*
X0189522Y0092057D01*
X0189235Y0090458D02*
X0209111Y0090458D01*
X0207513Y0088860D02*
X0188528Y0088860D01*
X0219840Y0120830D02*
X0260138Y0120830D01*
X0258539Y0119231D02*
X0221438Y0119231D01*
X0239493Y0141610D02*
X0276528Y0141610D01*
X0276528Y0143209D02*
X0241091Y0143209D01*
X0242690Y0144807D02*
X0276528Y0144807D01*
X0276528Y0146406D02*
X0244288Y0146406D01*
X0245887Y0148005D02*
X0276528Y0148005D01*
X0276528Y0149603D02*
X0247485Y0149603D01*
X0249084Y0151202D02*
X0276528Y0151202D01*
X0276528Y0152800D02*
X0250682Y0152800D01*
X0252281Y0154399D02*
X0276528Y0154399D01*
X0276528Y0155997D02*
X0253879Y0155997D01*
X0255478Y0157596D02*
X0276528Y0157596D01*
X0276528Y0159194D02*
X0267807Y0159194D01*
X0267669Y0159057D02*
X0268362Y0159750D01*
X0268939Y0160543D01*
X0269384Y0161417D01*
X0269687Y0162349D01*
X0269811Y0163131D01*
X0264287Y0163131D01*
X0264287Y0157608D01*
X0265070Y0157732D01*
X0266002Y0158035D01*
X0266876Y0158480D01*
X0267669Y0159057D01*
X0269066Y0160793D02*
X0276528Y0160793D01*
X0276528Y0162391D02*
X0269693Y0162391D01*
X0269811Y0164484D02*
X0264287Y0164484D01*
X0262935Y0164484D01*
X0262935Y0170008D01*
X0262152Y0169884D01*
X0261220Y0169581D01*
X0260346Y0169135D01*
X0259553Y0168559D01*
X0258860Y0167866D01*
X0258283Y0167073D01*
X0257838Y0166199D01*
X0257535Y0165267D01*
X0257411Y0164484D01*
X0262935Y0164484D01*
X0262935Y0163131D01*
X0264287Y0163131D01*
X0264287Y0164484D01*
X0264287Y0170008D01*
X0265070Y0169884D01*
X0266002Y0169581D01*
X0266876Y0169135D01*
X0267669Y0168559D01*
X0268362Y0167866D01*
X0268939Y0167073D01*
X0269384Y0166199D01*
X0269687Y0165267D01*
X0269811Y0164484D01*
X0269582Y0165588D02*
X0276528Y0165588D01*
X0276528Y0163990D02*
X0264287Y0163990D01*
X0262935Y0163990D02*
X0256168Y0163990D01*
X0257411Y0163131D02*
X0257535Y0162349D01*
X0257838Y0161417D01*
X0258283Y0160543D01*
X0258860Y0159750D01*
X0259553Y0159057D01*
X0260346Y0158480D01*
X0261220Y0158035D01*
X0262152Y0157732D01*
X0262935Y0157608D01*
X0262935Y0163131D01*
X0257411Y0163131D01*
X0257529Y0162391D02*
X0256168Y0162391D01*
X0256168Y0160793D02*
X0258156Y0160793D01*
X0259415Y0159194D02*
X0256168Y0159194D01*
X0256168Y0165588D02*
X0257640Y0165588D01*
X0258366Y0167187D02*
X0256168Y0167187D01*
X0256168Y0168785D02*
X0259864Y0168785D01*
X0262935Y0168785D02*
X0264287Y0168785D01*
X0264287Y0167187D02*
X0262935Y0167187D01*
X0262935Y0165588D02*
X0264287Y0165588D01*
X0264287Y0162391D02*
X0262935Y0162391D01*
X0262935Y0160793D02*
X0264287Y0160793D01*
X0264287Y0159194D02*
X0262935Y0159194D01*
X0268856Y0167187D02*
X0276528Y0167187D01*
X0276528Y0168785D02*
X0267358Y0168785D01*
X0276528Y0170384D02*
X0256168Y0170384D01*
X0256168Y0171982D02*
X0276528Y0171982D01*
X0276528Y0173581D02*
X0256168Y0173581D01*
X0256168Y0175179D02*
X0276528Y0175179D01*
X0276528Y0176778D02*
X0256168Y0176778D01*
X0256168Y0178376D02*
X0276528Y0178376D01*
X0276528Y0179975D02*
X0256168Y0179975D01*
X0256168Y0181573D02*
X0276528Y0181573D01*
X0276528Y0183172D02*
X0257432Y0183172D01*
X0259031Y0184770D02*
X0276528Y0184770D01*
X0276528Y0186369D02*
X0259909Y0186369D01*
X0259909Y0187967D02*
X0276528Y0187967D01*
X0276528Y0189566D02*
X0259909Y0189566D01*
X0259909Y0191164D02*
X0276528Y0191164D01*
X0276528Y0192763D02*
X0259909Y0192763D01*
X0261549Y0194361D02*
X0276528Y0194361D01*
X0276528Y0195960D02*
X0262839Y0195960D01*
X0270684Y0207149D02*
X0238103Y0207149D01*
X0239701Y0208748D02*
X0263269Y0208748D01*
X0260908Y0210346D02*
X0241300Y0210346D01*
X0242898Y0211945D02*
X0259873Y0211945D01*
X0259354Y0213543D02*
X0244201Y0213543D01*
X0239307Y0215142D02*
X0224168Y0215142D01*
X0224168Y0213543D02*
X0237708Y0213543D01*
X0236110Y0211945D02*
X0223648Y0211945D01*
X0222613Y0210346D02*
X0234511Y0210346D01*
X0232913Y0208748D02*
X0220252Y0208748D01*
X0216025Y0208748D02*
X0187743Y0208748D01*
X0186839Y0206524D02*
X0139595Y0206524D01*
X0140417Y0203952D02*
X0172664Y0203952D01*
X0170796Y0202354D02*
X0138819Y0202354D01*
X0137220Y0200755D02*
X0169965Y0200755D01*
X0169590Y0199157D02*
X0135622Y0199157D01*
X0134023Y0197558D02*
X0169590Y0197558D01*
X0170207Y0195960D02*
X0132999Y0195960D01*
X0131825Y0194361D02*
X0171381Y0194361D01*
X0179856Y0194361D02*
X0195608Y0194361D01*
X0194010Y0195960D02*
X0181030Y0195960D01*
X0181648Y0197558D02*
X0192411Y0197558D01*
X0190813Y0199157D02*
X0181648Y0199157D01*
X0181273Y0200755D02*
X0189214Y0200755D01*
X0187616Y0202354D02*
X0180442Y0202354D01*
X0178574Y0203952D02*
X0186017Y0203952D01*
X0186839Y0206524D02*
X0202587Y0190776D01*
X0218335Y0190776D01*
X0218526Y0194361D02*
X0214305Y0194361D01*
X0215594Y0195960D02*
X0220125Y0195960D01*
X0221723Y0197558D02*
X0216257Y0197558D01*
X0216294Y0199157D02*
X0223322Y0199157D01*
X0224920Y0200755D02*
X0216000Y0200755D01*
X0215284Y0202354D02*
X0226519Y0202354D01*
X0228117Y0203952D02*
X0213686Y0203952D01*
X0206843Y0203952D02*
X0192805Y0203952D01*
X0191207Y0205551D02*
X0229716Y0205551D01*
X0231314Y0207149D02*
X0189608Y0207149D01*
X0194404Y0202354D02*
X0205245Y0202354D01*
X0204529Y0200755D02*
X0196002Y0200755D01*
X0197601Y0199157D02*
X0204235Y0199157D01*
X0204273Y0197558D02*
X0199200Y0197558D01*
X0200798Y0195960D02*
X0204935Y0195960D01*
X0206224Y0194361D02*
X0202397Y0194361D01*
X0189716Y0176778D02*
X0236558Y0176778D01*
X0234960Y0175179D02*
X0189239Y0175179D01*
X0188786Y0173581D02*
X0234250Y0173581D01*
X0233960Y0171982D02*
X0187187Y0171982D01*
X0185589Y0170384D02*
X0234001Y0170384D01*
X0234663Y0168785D02*
X0219916Y0168785D01*
X0221493Y0167187D02*
X0235958Y0167187D01*
X0211090Y0160793D02*
X0188539Y0160793D01*
X0186940Y0162391D02*
X0210428Y0162391D01*
X0168761Y0146406D02*
X0157534Y0146406D01*
X0158691Y0144807D02*
X0165035Y0144807D01*
X0163437Y0143209D02*
X0158924Y0143209D01*
X0158423Y0141610D02*
X0161838Y0141610D01*
X0160240Y0140012D02*
X0156202Y0140012D01*
X0154484Y0140012D02*
X0106562Y0140012D01*
X0106562Y0141610D02*
X0144028Y0141610D01*
X0142430Y0143209D02*
X0106562Y0143209D01*
X0106562Y0144807D02*
X0140831Y0144807D01*
X0139233Y0146406D02*
X0106562Y0146406D01*
X0106562Y0148005D02*
X0137634Y0148005D01*
X0136036Y0149603D02*
X0106562Y0149603D01*
X0107352Y0151202D02*
X0134437Y0151202D01*
X0132839Y0152800D02*
X0108950Y0152800D01*
X0110549Y0154399D02*
X0131240Y0154399D01*
X0129642Y0155997D02*
X0112147Y0155997D01*
X0113746Y0157596D02*
X0128043Y0157596D01*
X0131635Y0160793D02*
X0158311Y0160793D01*
X0156712Y0162391D02*
X0130036Y0162391D01*
X0127784Y0161249D02*
X0145501Y0143532D01*
X0155343Y0143532D01*
X0153153Y0146406D02*
X0146021Y0146406D01*
X0144423Y0148005D02*
X0167162Y0148005D01*
X0165563Y0149603D02*
X0142824Y0149603D01*
X0141226Y0151202D02*
X0163965Y0151202D01*
X0162366Y0152800D02*
X0139627Y0152800D01*
X0138029Y0154399D02*
X0161011Y0154399D01*
X0160817Y0155997D02*
X0136430Y0155997D01*
X0134832Y0157596D02*
X0160817Y0157596D01*
X0159909Y0159194D02*
X0133233Y0159194D01*
X0127784Y0161249D02*
X0114005Y0161249D01*
X0110154Y0160793D02*
X0010537Y0160793D01*
X0010537Y0159194D02*
X0108556Y0159194D01*
X0106957Y0157596D02*
X0081872Y0157596D01*
X0081807Y0157596D02*
X0080454Y0157596D01*
X0080454Y0157606D02*
X0079672Y0157482D01*
X0078740Y0157179D01*
X0077866Y0156734D01*
X0077073Y0156158D01*
X0076379Y0155464D01*
X0075803Y0154671D01*
X0075358Y0153797D01*
X0075055Y0152865D01*
X0074931Y0152083D01*
X0080454Y0152083D01*
X0080454Y0150730D01*
X0074931Y0150730D01*
X0075055Y0149948D01*
X0075358Y0149015D01*
X0075803Y0148142D01*
X0076379Y0147348D01*
X0077073Y0146655D01*
X0077866Y0146079D01*
X0078740Y0145634D01*
X0079672Y0145331D01*
X0080454Y0145207D01*
X0080454Y0150730D01*
X0081807Y0150730D01*
X0081807Y0145207D01*
X0082589Y0145331D01*
X0083522Y0145634D01*
X0084395Y0146079D01*
X0085189Y0146655D01*
X0085882Y0147348D01*
X0086458Y0148142D01*
X0086903Y0149015D01*
X0087206Y0149948D01*
X0087330Y0150730D01*
X0081807Y0150730D01*
X0081807Y0152083D01*
X0080454Y0152083D01*
X0080454Y0157606D01*
X0080389Y0157596D02*
X0010537Y0157596D01*
X0010537Y0155997D02*
X0029164Y0155997D01*
X0029684Y0156518D02*
X0027988Y0154822D01*
X0027070Y0152606D01*
X0027070Y0150207D01*
X0027988Y0147991D01*
X0029684Y0146295D01*
X0031900Y0145377D01*
X0034298Y0145377D01*
X0036514Y0146295D01*
X0038210Y0147991D01*
X0039128Y0150207D01*
X0039128Y0152606D01*
X0038210Y0154822D01*
X0036514Y0156518D01*
X0034298Y0157435D01*
X0031900Y0157435D01*
X0029684Y0156518D01*
X0027813Y0154399D02*
X0010537Y0154399D01*
X0010537Y0152800D02*
X0027151Y0152800D01*
X0027070Y0151202D02*
X0010537Y0151202D01*
X0010537Y0149603D02*
X0027320Y0149603D01*
X0027982Y0148005D02*
X0010537Y0148005D01*
X0010537Y0146406D02*
X0029573Y0146406D01*
X0036625Y0146406D02*
X0077415Y0146406D01*
X0075903Y0148005D02*
X0038216Y0148005D01*
X0038878Y0149603D02*
X0075167Y0149603D01*
X0075045Y0152800D02*
X0039048Y0152800D01*
X0039128Y0151202D02*
X0080454Y0151202D01*
X0081807Y0151202D02*
X0101762Y0151202D01*
X0101762Y0149603D02*
X0087094Y0149603D01*
X0086359Y0148005D02*
X0101762Y0148005D01*
X0101762Y0146406D02*
X0084846Y0146406D01*
X0081807Y0146406D02*
X0080454Y0146406D01*
X0080454Y0148005D02*
X0081807Y0148005D01*
X0081807Y0149603D02*
X0080454Y0149603D01*
X0081807Y0152083D02*
X0087330Y0152083D01*
X0087206Y0152865D01*
X0086903Y0153797D01*
X0086458Y0154671D01*
X0085882Y0155464D01*
X0085189Y0156158D01*
X0084395Y0156734D01*
X0083522Y0157179D01*
X0082589Y0157482D01*
X0081807Y0157606D01*
X0081807Y0152083D01*
X0081807Y0152800D02*
X0080454Y0152800D01*
X0080454Y0154399D02*
X0081807Y0154399D01*
X0081807Y0155997D02*
X0080454Y0155997D01*
X0085349Y0155997D02*
X0105359Y0155997D01*
X0103760Y0154399D02*
X0086597Y0154399D01*
X0087217Y0152800D02*
X0102162Y0152800D01*
X0101762Y0144807D02*
X0010537Y0144807D01*
X0010537Y0143209D02*
X0101762Y0143209D01*
X0101762Y0141610D02*
X0010537Y0141610D01*
X0010537Y0140012D02*
X0101762Y0140012D01*
X0101762Y0138413D02*
X0010537Y0138413D01*
X0010537Y0136815D02*
X0101762Y0136815D01*
X0106562Y0120830D02*
X0123918Y0120830D01*
X0122411Y0119231D02*
X0106562Y0119231D01*
X0106562Y0117633D02*
X0121749Y0117633D01*
X0121558Y0116034D02*
X0106562Y0116034D01*
X0106562Y0114436D02*
X0121698Y0114436D01*
X0122360Y0112837D02*
X0106562Y0112837D01*
X0106562Y0111239D02*
X0123795Y0111239D01*
X0132819Y0136815D02*
X0157043Y0136815D01*
X0158641Y0138413D02*
X0131390Y0138413D01*
X0118476Y0171982D02*
X0149403Y0171982D01*
X0148130Y0173581D02*
X0116878Y0173581D01*
X0115279Y0175179D02*
X0125725Y0175179D01*
X0123217Y0176778D02*
X0113681Y0176778D01*
X0112082Y0178376D02*
X0122121Y0178376D01*
X0121558Y0179975D02*
X0110484Y0179975D01*
X0108885Y0181573D02*
X0121558Y0181573D01*
X0121988Y0183172D02*
X0107287Y0183172D01*
X0105688Y0184770D02*
X0122897Y0184770D01*
X0124954Y0186369D02*
X0104090Y0186369D01*
X0102491Y0187967D02*
X0131227Y0187967D01*
X0132825Y0189566D02*
X0100893Y0189566D01*
X0090908Y0192763D02*
X0048240Y0192763D01*
X0050884Y0194361D02*
X0084177Y0194361D01*
X0082887Y0195960D02*
X0052350Y0195960D01*
X0053012Y0197558D02*
X0082225Y0197558D01*
X0082188Y0199157D02*
X0053463Y0199157D01*
X0053463Y0200755D02*
X0082482Y0200755D01*
X0083198Y0202354D02*
X0053235Y0202354D01*
X0052573Y0203952D02*
X0084796Y0203952D01*
X0086293Y0216741D02*
X0048671Y0216741D01*
X0049136Y0216933D02*
X0048151Y0216525D01*
X0047122Y0216249D01*
X0046065Y0216110D01*
X0040002Y0216110D01*
X0040002Y0223441D01*
X0053628Y0223441D01*
X0053524Y0222651D01*
X0053248Y0221622D01*
X0052840Y0220637D01*
X0052307Y0219714D01*
X0051658Y0218868D01*
X0050905Y0218115D01*
X0050059Y0217466D01*
X0049136Y0216933D01*
X0051129Y0218339D02*
X0083821Y0218339D01*
X0082740Y0219938D02*
X0052436Y0219938D01*
X0053212Y0221536D02*
X0082188Y0221536D01*
X0082188Y0223135D02*
X0053587Y0223135D01*
X0053390Y0226332D02*
X0083553Y0226332D01*
X0082629Y0224733D02*
X0040002Y0224733D01*
X0040002Y0223135D02*
X0038402Y0223135D01*
X0038402Y0221536D02*
X0040002Y0221536D01*
X0040002Y0219938D02*
X0038402Y0219938D01*
X0038402Y0218339D02*
X0040002Y0218339D01*
X0040002Y0216741D02*
X0038402Y0216741D01*
X0038402Y0226332D02*
X0040002Y0226332D01*
X0040002Y0227930D02*
X0038402Y0227930D01*
X0038402Y0229529D02*
X0040002Y0229529D01*
X0040002Y0231127D02*
X0038402Y0231127D01*
X0028537Y0231127D02*
X0010537Y0231127D01*
X0010537Y0229529D02*
X0026680Y0229529D01*
X0025612Y0227930D02*
X0010537Y0227930D01*
X0010537Y0232726D02*
X0090780Y0232726D01*
X0090118Y0234324D02*
X0010537Y0234324D01*
X0010537Y0235923D02*
X0090062Y0235923D01*
X0090337Y0237521D02*
X0010537Y0237521D01*
X0023273Y0226332D02*
X0025014Y0226332D01*
X0049540Y0207149D02*
X0136826Y0207149D01*
X0135228Y0205551D02*
X0051422Y0205551D01*
X0052791Y0227930D02*
X0085646Y0227930D01*
X0130542Y0203952D02*
X0133629Y0203952D01*
X0185893Y0216741D02*
X0208340Y0216741D01*
X0205868Y0218339D02*
X0188086Y0218339D01*
X0189052Y0219938D02*
X0204787Y0219938D01*
X0204235Y0221536D02*
X0189522Y0221536D01*
X0189522Y0223135D02*
X0204235Y0223135D01*
X0204676Y0224733D02*
X0189000Y0224733D01*
X0187960Y0226332D02*
X0205600Y0226332D01*
X0207693Y0227930D02*
X0185589Y0227930D01*
X0212836Y0227930D02*
X0239557Y0227930D01*
X0239557Y0226332D02*
X0214929Y0226332D01*
X0215853Y0224733D02*
X0239557Y0224733D01*
X0239557Y0223135D02*
X0216294Y0223135D01*
X0216294Y0221536D02*
X0239557Y0221536D01*
X0239557Y0219938D02*
X0220521Y0219938D01*
X0222724Y0218339D02*
X0239557Y0218339D01*
X0239557Y0216741D02*
X0223694Y0216741D01*
X0215756Y0219938D02*
X0215742Y0219938D01*
X0251986Y0240718D02*
X0254726Y0240718D01*
X0267765Y0219938D02*
X0271054Y0219938D01*
X0271054Y0218339D02*
X0269969Y0218339D01*
X0270938Y0216741D02*
X0271054Y0216741D01*
X0271054Y0211945D02*
X0270892Y0211945D01*
X0271054Y0210346D02*
X0269857Y0210346D01*
X0271054Y0208748D02*
X0267496Y0208748D01*
X0166162Y0050495D02*
X0148378Y0050495D01*
X0146779Y0048897D02*
X0164563Y0048897D01*
X0163871Y0047298D02*
X0145181Y0047298D01*
X0143582Y0045700D02*
X0163507Y0045700D01*
X0163507Y0044101D02*
X0141984Y0044101D01*
X0140385Y0042503D02*
X0164042Y0042503D01*
X0164976Y0040904D02*
X0138787Y0040904D01*
X0137188Y0039306D02*
X0166866Y0039306D01*
X0175723Y0026518D02*
X0111342Y0026518D01*
X0112941Y0024919D02*
X0174124Y0024919D01*
X0172802Y0023321D02*
X0114262Y0023321D01*
X0114262Y0021722D02*
X0172802Y0021722D01*
X0172802Y0020124D02*
X0114262Y0020124D01*
X0113415Y0018525D02*
X0173650Y0018525D01*
X0180556Y0016927D02*
X0185531Y0016927D01*
X0183933Y0018525D02*
X0182155Y0018525D01*
X0183002Y0020124D02*
X0183002Y0020124D01*
X0183002Y0021722D02*
X0183002Y0021722D01*
X0183002Y0023321D02*
X0183002Y0023321D01*
X0181681Y0024919D02*
X0184407Y0024919D01*
X0215281Y0031313D02*
X0129195Y0031313D01*
X0130400Y0039306D02*
X0120198Y0039306D01*
X0120696Y0039512D02*
X0118270Y0038507D01*
X0115645Y0038507D01*
X0113219Y0039512D01*
X0111362Y0041368D01*
X0110357Y0043794D01*
X0110357Y0046420D01*
X0111362Y0048846D01*
X0113219Y0050702D01*
X0115645Y0051707D01*
X0118270Y0051707D01*
X0120696Y0050702D01*
X0122553Y0048846D01*
X0123557Y0046420D01*
X0123557Y0043794D01*
X0122553Y0041368D01*
X0120696Y0039512D01*
X0122088Y0040904D02*
X0131998Y0040904D01*
X0133597Y0042503D02*
X0123023Y0042503D01*
X0123557Y0044101D02*
X0135195Y0044101D01*
X0136794Y0045700D02*
X0123557Y0045700D01*
X0123194Y0047298D02*
X0138392Y0047298D01*
X0139991Y0048897D02*
X0122502Y0048897D01*
X0120903Y0050495D02*
X0141589Y0050495D01*
X0113012Y0050495D02*
X0095312Y0050495D01*
X0096911Y0048897D02*
X0111413Y0048897D01*
X0110721Y0047298D02*
X0097603Y0047298D01*
X0097967Y0045700D02*
X0110357Y0045700D01*
X0110357Y0044101D02*
X0097967Y0044101D01*
X0097432Y0042503D02*
X0110892Y0042503D01*
X0111826Y0040904D02*
X0096498Y0040904D01*
X0094608Y0039306D02*
X0113716Y0039306D01*
X0105384Y0024919D02*
X0102658Y0024919D01*
X0104062Y0023321D02*
X0104062Y0023321D01*
X0104062Y0021722D02*
X0104062Y0021722D01*
X0104062Y0020124D02*
X0104062Y0020124D01*
X0104910Y0018525D02*
X0103132Y0018525D01*
X0101533Y0016927D02*
X0106508Y0016927D01*
X0075664Y0154399D02*
X0038386Y0154399D01*
X0037035Y0155997D02*
X0076912Y0155997D01*
D15*
X0147469Y0096288D03*
X0104162Y0084477D03*
X0072666Y0033296D03*
X0155343Y0143532D03*
X0171091Y0155343D03*
X0163217Y0171091D03*
X0151406Y0175028D03*
X0186839Y0178965D03*
X0202587Y0182902D03*
X0218335Y0033296D03*
M02*
